// Jest Snapshot v1, https://goo.gl/fbAQLP

exports[`vis component should render 1`] = `
<div>
  <div
    class="MuiGrid-root makeStyles-root-3 MuiGrid-container MuiGrid-direction-xs-column MuiGrid-wrap-xs-nowrap"
  >
    <div
      class="MuiGrid-root MuiGrid-item"
    >
      <div
        class="makeStyles-container-7 makeStyles-container-8"
      >
        <header
          class="MuiPaper-root MuiAppBar-root MuiAppBar-positionStatic MuiAppBar-colorPrimary makeStyles-appBar-9 MuiPaper-elevation0"
          data-testid="sisccappbar"
        >
          <div
            class="MuiToolbar-root MuiToolbar-regular makeStyles-toolBar-11 MuiToolbar-gutters"
          >
            <div
              class="makeStyles-logoWrapper-12"
            >
              <img
                alt="siscc logo"
                class="makeStyles-logo-13 makeStyles-alternativeBrowserLogo-14"
              />
            </div>
            <p
              class="MuiTypography-root makeStyles-headerTitle-22 MuiTypography-body1"
            >
              de.header.message
            </p>
            <hr
              class="MuiDivider-root makeStyles-divider-20 MuiDivider-flexItem MuiDivider-vertical"
            />
            <button
              aria-label="Accessibility support"
              class="MuiButtonBase-root MuiIconButton-root"
              tabindex="0"
              type="button"
            >
              <span
                class="MuiIconButton-label"
              >
                <svg
                  aria-hidden="true"
                  class="MuiSvgIcon-root MuiSvgIcon-colorPrimary"
                  focusable="false"
                  viewBox="0 0 32 38"
                >
                  <path
                    d="M16 0.256c-8.672 0-15.744 7.072-15.744 15.744s7.072 15.744 15.744 15.744 15.744-7.072 15.744-15.744-7.072-15.744-15.744-15.744zM16 30.016c-7.744 0-13.984-6.272-13.984-14.016s6.24-14.016 13.984-14.016 14.016 6.272 14.016 14.016-6.272 14.016-14.016 14.016zM19.328 25.984c-0.512 0-1.056-0.384-1.312-0.928l-2.016-4.928-1.984 4.928c-0.288 0.544-0.8 0.928-1.344 0.928-0.128 0-0.416 0-0.544-0.128-0.672-0.256-1.056-1.184-0.8-1.856l2.688-6.4v-2.816l-4.544-0.64c-0.416 0-0.672-0.288-0.928-0.544-0.288-0.256-0.416-0.672-0.288-1.056 0.16-0.672 0.672-1.216 1.472-1.216 0.128 0 0.128 0 0.288 0l5.44 0.8c0 0 0.16-0.128 0.16-0.128v0h0.928l0.128 0.128c0 0 0.128 0 0.128 0l5.472-0.8c0.128 0 0.128 0 0.256 0 0.672 0 1.344 0.544 1.472 1.216 0 0.384 0 0.8-0.256 1.056-0.288 0.256-0.544 0.544-0.928 0.544l-4.544 0.64v2.816l2.656 6.4c0.128 0.384 0.128 0.8 0 1.056-0.128 0.416-0.384 0.672-0.8 0.8-0.384 0.128-0.512 0.128-0.8 0.128zM16 10.4c-1.184 0-2.272-0.928-2.272-2.272s0.928-2.272 2.272-2.272c1.216 0 2.272 0.928 2.272 2.272s-1.056 2.272-2.272 2.272z"
                  />
                </svg>
              </span>
            </button>
            <hr
              class="MuiDivider-root makeStyles-divider-20 MuiDivider-flexItem MuiDivider-vertical"
            />
            <button
              aria-label="Log in"
              aria-pressed="false"
              class="MuiButtonBase-root MuiIconButton-root"
              tabindex="0"
              type="button"
            >
              <span
                class="MuiIconButton-label"
              >
                <svg
                  aria-hidden="true"
                  class="MuiSvgIcon-root MuiSvgIcon-colorPrimary"
                  focusable="false"
                  viewBox="0 0 32 38"
                >
                  <path
                    d="M16 5.728c2.4 0 4.416 2.016 4.416 4.416s-2.016 4.384-4.416 4.384-4.384-1.984-4.384-4.384 1.984-4.416 4.384-4.416zM16 26.528c-3.584 0-6.944-1.856-8.8-4.672 0-2.912 5.856-4.512 8.8-4.512s8.672 1.6 8.8 4.512c-1.856 2.816-5.184 4.672-8.8 4.672zM16 0.256c-8.672 0-15.744 7.072-15.744 15.744s7.072 15.744 15.744 15.744 15.744-7.072 15.744-15.744-7.072-15.744-15.744-15.744zM16 30.016c-7.744 0-13.984-6.272-13.984-14.016s6.24-14.016 13.984-14.016 14.016 6.272 14.016 14.016-6.272 14.016-14.016 14.016z"
                  />
                </svg>
              </span>
            </button>
            <hr
              class="MuiDivider-root makeStyles-divider-20 MuiDivider-flexItem MuiDivider-vertical"
            />
            <button
              aria-label="contact"
              class="MuiButtonBase-root MuiIconButton-root"
              style="margin-bottom: 3px;"
              tabindex="0"
              type="button"
            >
              <span
                class="MuiIconButton-label"
              >
                <svg
                  aria-hidden="true"
                  class="MuiSvgIcon-root MuiSvgIcon-colorPrimary"
                  focusable="false"
                  viewBox="0 0 24 24"
                >
                  <path
                    d="M11.5 2C6.81 2 3 5.81 3 10.5S6.81 19 11.5 19h.5v3c4.86-2.34 8-7 8-11.5C20 5.81 16.19 2 11.5 2zm1 14.5h-2v-2h2v2zm0-3.5h-2c0-3.25 3-3 3-5 0-1.1-.9-2-2-2s-2 .9-2 2h-2c0-2.21 1.79-4 4-4s4 1.79 4 4c0 2.5-3 2.75-3 5z"
                  />
                </svg>
              </span>
            </button>
            <div
              class="makeStyles-notifContainer-32"
            >
              <div
                class="MuiCollapse-root MuiCollapse-hidden"
                style="min-height: 0px;"
              >
                <div
                  class="MuiCollapse-wrapper"
                >
                  <div
                    class="MuiCollapse-wrapperInner"
                  >
                    <div
                      class="MuiPaper-root MuiAlert-root MuiAlert-standardError MuiPaper-elevation0"
                      role="alert"
                    >
                      <div
                        class="MuiAlert-icon"
                      >
                        <svg
                          aria-hidden="true"
                          class="MuiSvgIcon-root MuiSvgIcon-fontSizeInherit"
                          focusable="false"
                          viewBox="0 0 24 24"
                        >
                          <path
                            d="M11 15h2v2h-2zm0-8h2v6h-2zm.99-5C6.47 2 2 6.48 2 12s4.47 10 9.99 10C17.52 22 22 17.52 22 12S17.52 2 11.99 2zM12 20c-4.42 0-8-3.58-8-8s3.58-8 8-8 8 3.58 8 8-3.58 8-8 8z"
                          />
                        </svg>
                      </div>
                      <div
                        class="MuiAlert-message"
                      >
                        We are sorry, something went wrong. Please try again later.
                      </div>
                      <div
                        class="MuiAlert-action"
                      >
                        <button
                          aria-label="close"
                          class="MuiButtonBase-root MuiIconButton-root MuiIconButton-colorInherit MuiIconButton-sizeSmall"
                          tabindex="0"
                          type="button"
                        >
                          <span
                            class="MuiIconButton-label"
                          >
                            <svg
                              aria-hidden="true"
                              class="MuiSvgIcon-root MuiSvgIcon-fontSizeInherit"
                              focusable="false"
                              viewBox="0 0 24 24"
                            >
                              <path
                                d="M19 6.41L17.59 5 12 10.59 6.41 5 5 6.41 10.59 12 5 17.59 6.41 19 12 13.41 17.59 19 19 17.59 13.41 12z"
                              />
                            </svg>
                          </span>
                        </button>
                      </div>
                    </div>
                  </div>
                </div>
              </div>
            </div>
            <hr
              class="MuiDivider-root makeStyles-divider-20 MuiDivider-flexItem MuiDivider-vertical"
            />
            <div
              class="MuiFormControl-root MuiTextField-root makeStyles-textField-15"
            >
              <div
                class="MuiInputBase-root MuiOutlinedInput-root MuiInputBase-formControl"
              >
                <div
                  aria-haspopup="listbox"
                  aria-labelledby="languages"
                  class="MuiSelect-root makeStyles-select-16 MuiSelect-select MuiSelect-selectMenu MuiSelect-outlined MuiInputBase-input MuiOutlinedInput-input"
                  id="languages"
                  role="button"
                  tabindex="0"
                >
                  <span>
                    ​
                  </span>
                </div>
                <input
                  aria-hidden="true"
                  class="MuiSelect-nativeInput"
                  tabindex="-1"
                  value=""
                />
                <svg
                  aria-hidden="true"
                  class="MuiSvgIcon-root MuiSelect-icon MuiSelect-iconOutlined makeStyles-arrowDown-17"
                  focusable="false"
                  viewBox="0 0 24 24"
                >
                  <path
                    d="M7 10l5 5 5-5z"
                  />
                </svg>
                <fieldset
                  aria-hidden="true"
                  class="PrivateNotchedOutline-root-36 MuiOutlinedInput-notchedOutline"
                  style="padding-left: 8px;"
                >
                  <legend
                    class="PrivateNotchedOutline-legend-37"
                    style="width: 0.01px;"
                  >
                    <span>
                      ​
                    </span>
                  </legend>
                </fieldset>
              </div>
            </div>
          </div>
        </header>
      </div>
    </div>
    <div
      class="ForwardRef-root-50 class_page makeStyles-visPage-40 makeStyles-visPage-47"
      id="id_vis_page"
    >
      <div
        class="MuiGrid-root MuiGrid-container"
      >
        <div
          class="makeStyles-gutters-41"
        >
          <div
            class="MuiGrid-root MuiGrid-container"
            data-testid="filters-help"
          >
            <p
              class="MuiTypography-root makeStyles-root-51 MuiTypography-body2"
              id="filters"
              tabindex="0"
            >
              Filters
               
            </p>
          </div>
          <div
            class="makeStyles-space-43 makeStyles-space-48"
          />
        </div>
        <div
          class="makeStyles-gutters-41"
          wrap="nowrap"
        >
          <div
            class="makeStyles-side-45"
          />
          <div
            class="MuiGrid-root"
          >
            <div
              class="MuiGrid-root makeStyles-visContainer-42 MuiGrid-item MuiGrid-grid-xs-12"
            >
              <div
                class="makeStyles-toolbar-77 makeStyles-toolbar-78"
              >
                <div
                  class="MuiToolbar-root MuiToolbar-regular makeStyles-root-79"
                  data-testid="detoolbar"
                >
                  <div
                    class="makeStyles-root-79"
                    role="list"
                  >
                    <div
                      role="listitem"
                    >
                      <button
                        aria-hidden="false"
                        aria-label=""
                        aria-pressed="true"
                        class="MuiButtonBase-root MuiButton-root ForwardRef-root-82 MuiButton-text makeStyles-button-81 makeStyles-defaultSelected-85 MuiButton-textPrimary"
                        tabindex="0"
                        title=""
                        type="button"
                      >
                        <span
                          class="MuiButton-label ForwardRef-label-84"
                        >
                          <span
                            class="MuiButton-startIcon ForwardRef-startIcon-83 MuiButton-iconSizeMedium"
                          >
                            <svg
                              aria-hidden="true"
                              class="MuiSvgIcon-root"
                              focusable="false"
                              viewBox="0 0 24 24"
                            >
                              <path
                                d="M19 5v14H5V5h14m1.1-2H3.9c-.5 0-.9.4-.9.9v16.2c0 .4.4.9.9.9h16.2c.4 0 .9-.5.9-.9V3.9c0-.5-.5-.9-.9-.9zM11 7h6v2h-6V7zm0 4h6v2h-6v-2zm0 4h6v2h-6zM7 7h2v2H7zm0 4h2v2H7zm0 4h2v2H7z"
                              />
                            </svg>
                          </span>
                          Overview
                        </span>
                      </button>
                    </div>
                    <div
                      role="listitem"
                    >
                      <button
                        aria-hidden="false"
                        aria-label=""
                        aria-pressed="false"
                        class="MuiButtonBase-root MuiButton-root ForwardRef-root-82 MuiButton-text makeStyles-button-81 MuiButton-textPrimary"
                        data-testid="table-button"
                        tabindex="0"
                        title=""
                        type="button"
                      >
                        <span
                          class="MuiButton-label ForwardRef-label-84"
                        >
                          <span
                            class="MuiButton-startIcon ForwardRef-startIcon-83 MuiButton-iconSizeMedium"
                          >
                            <svg
                              aria-hidden="true"
                              class="MuiSvgIcon-root"
                              focusable="false"
                              viewBox="0 0 24 24"
                            >
                              <path
                                d="M20 3H5c-1.1 0-2 .9-2 2v14c0 1.1.9 2 2 2h15c1.1 0 2-.9 2-2V5c0-1.1-.9-2-2-2zm0 2v3H5V5h15zm-5 14h-5v-9h5v9zM5 10h3v9H5v-9zm12 9v-9h3v9h-3z"
                              />
                            </svg>
                          </span>
                          Table
                        </span>
                      </button>
                    </div>
                    <div
                      role="listitem"
                    >
                      <button
                        aria-expanded="false"
                        aria-haspopup="true"
                        aria-hidden="false"
                        aria-label=""
                        aria-pressed="false"
                        class="MuiButtonBase-root MuiButton-root ForwardRef-root-82 MuiButton-text makeStyles-button-81 MuiButton-textPrimary"
                        data-testid="chart-button"
                        tabindex="0"
                        title=""
                        type="button"
                      >
                        <span
                          class="MuiButton-label ForwardRef-label-84"
                        >
                          <span
                            class="MuiButton-startIcon ForwardRef-startIcon-83 MuiButton-iconSizeMedium"
                          >
                            <svg
                              aria-hidden="true"
                              class="MuiSvgIcon-root"
                              focusable="false"
                              viewBox="0 0 24 24"
                            >
                              <path
                                d="M19 3H5c-1.1 0-2 .9-2 2v14c0 1.1.9 2 2 2h14c1.1 0 2-.9 2-2V5c0-1.1-.9-2-2-2zm0 16H5V5h14v14zM7 10h2v7H7zm4-3h2v10h-2zm4 6h2v4h-2z"
                              />
                            </svg>
                          </span>
                          Chart
                        </span>
                      </button>
                    </div>
                  </div>
                  <div
                    class="makeStyles-root-79"
                    role="list"
                  >
                    <div
                      role="listitem"
                    >
                      <button
                        aria-expanded="false"
                        aria-haspopup="true"
                        aria-hidden="false"
                        aria-label=""
                        aria-pressed="false"
                        class="MuiButtonBase-root MuiButton-root ForwardRef-root-82 MuiButton-text makeStyles-button-81 MuiButton-textPrimary"
                        tabindex="0"
                        title=""
                        type="button"
                      >
                        <span
                          class="MuiButton-label ForwardRef-label-84"
                        >
                          <span
                            class="MuiButton-startIcon ForwardRef-startIcon-83 MuiButton-iconSizeMedium"
                          >
                            <svg
                              aria-hidden="true"
                              class="MuiSvgIcon-root"
                              focusable="false"
                              viewBox="0 0 24 24"
                            >
                              <path
                                d="M21.41 11.58l-9-9C12.05 2.22 11.55 2 11 2H4c-1.1 0-2 .9-2 2v7c0 .55.22 1.05.59 1.42l9 9c.36.36.86.58 1.41.58s1.05-.22 1.41-.59l7-7c.37-.36.59-.86.59-1.41s-.23-1.06-.59-1.42zM13 20.01L4 11V4h7v-.01l9 9-7 7.02z"
                              />
                              <circle
                                cx="6.5"
                                cy="6.5"
                                r="1.5"
                              />
                            </svg>
                          </span>
                          Labels
                        </span>
                      </button>
                    </div>
                    <div
                      role="listitem"
                    >
                      <button
                        aria-expanded="false"
                        aria-haspopup="true"
                        aria-hidden="false"
                        aria-label=""
                        aria-pressed="false"
                        class="MuiButtonBase-root MuiButton-root ForwardRef-root-82 MuiButton-text makeStyles-button-81 MuiButton-textPrimary"
                        data-testid="downloads-button"
                        tabindex="0"
                        title=""
                        type="button"
                      >
                        <span
                          class="MuiButton-label ForwardRef-label-84"
                        >
                          <span
                            class="MuiButton-startIcon ForwardRef-startIcon-83 MuiButton-iconSizeMedium"
                          >
                            <svg
                              aria-hidden="true"
                              class="MuiSvgIcon-root"
                              focusable="false"
                              viewBox="0 0 24 24"
                            >
                              <path
                                d="M19 9h-4V3H9v6H5l7 7 7-7zM5 18v2h14v-2H5z"
                              />
                            </svg>
                          </span>
                          Download
                        </span>
                      </button>
                    </div>
                    <div
                      role="listitem"
                    >
                      <button
                        aria-expanded="false"
                        aria-hidden="false"
                        aria-label=""
                        aria-pressed="false"
                        class="MuiButtonBase-root MuiButton-root ForwardRef-root-82 MuiButton-text makeStyles-button-81 MuiButton-textPrimary"
                        id="api"
                        tabindex="0"
                        title=""
                        type="button"
                      >
                        <span
                          class="MuiButton-label ForwardRef-label-84"
                        >
                          <span
                            class="MuiButton-startIcon ForwardRef-startIcon-83 MuiButton-iconSizeMedium"
                          >
                            <svg
                              aria-hidden="true"
                              class="MuiSvgIcon-root"
                              focusable="false"
                              viewBox="0 0 24 24"
                            >
                              <path
                                d="M7 5h10v2h2V3c0-1.1-.9-1.99-2-1.99L7 1c-1.1 0-2 .9-2 2v4h2V5zm8.41 11.59L20 12l-4.59-4.59L14 8.83 17.17 12 14 15.17l1.41 1.42zM10 15.17L6.83 12 10 8.83 8.59 7.41 4 12l4.59 4.59L10 15.17zM17 19H7v-2H5v4c0 1.1.9 2 2 2h10c1.1 0 2-.9 2-2v-4h-2v2z"
                              />
                            </svg>
                          </span>
                          Developer API
                        </span>
                      </button>
                    </div>
                    <div
                      role="listitem"
                    >
                      <button
                        aria-hidden="false"
                        aria-label=""
                        aria-pressed="false"
                        class="MuiButtonBase-root MuiButton-root ForwardRef-root-82 MuiButton-text makeStyles-button-81 MuiButton-textPrimary"
                        id="fullscreen"
                        tabindex="0"
                        title=""
                        type="button"
                      >
                        <span
                          class="MuiButton-label ForwardRef-label-84"
                        >
                          <span
                            class="MuiButton-startIcon ForwardRef-startIcon-83 MuiButton-iconSizeMedium"
                          >
                            <svg
                              aria-hidden="true"
                              class="MuiSvgIcon-root"
                              focusable="false"
                              viewBox="0 0 24 24"
                            >
                              <path
                                d="M7 14H5v5h5v-2H7v-3zm-2-4h2V7h3V5H5v5zm12 7h-3v2h5v-5h-2v3zM14 5v2h3v3h2V5h-5z"
                              />
                            </svg>
                          </span>
                          Full screen
                        </span>
                      </button>
                    </div>
                  </div>
                </div>
                <div
                  class="MuiCollapse-root MuiCollapse-hidden"
                  style="min-height: 0px;"
                >
                  <div
                    class="MuiCollapse-wrapper"
                  >
                    <div
                      class="MuiCollapse-wrapperInner"
                    >
                      <div
                        class="MuiPaper-root makeStyles-container-92 MuiPaper-elevation2 MuiPaper-rounded"
                      >
                        <button
                          class="MuiButtonBase-root MuiIconButton-root MuiIconButton-colorPrimary MuiIconButton-sizeSmall"
                          style="float: right;"
                          tabindex="0"
                          type="button"
                        >
                          <span
                            class="MuiIconButton-label"
                          >
                            <svg
                              aria-hidden="true"
                              class="MuiSvgIcon-root MuiSvgIcon-fontSizeSmall"
                              focusable="false"
                              viewBox="0 0 24 24"
                            >
                              <path
                                d="M19 6.41L17.59 5 12 10.59 6.41 5 5 6.41 10.59 12 5 17.59 6.41 19 12 13.41 17.59 19 19 17.59 13.41 12z"
                              />
                            </svg>
                          </span>
                        </button>
                      </div>
                    </div>
                  </div>
                </div>
                <div
                  class="MuiCollapse-root MuiCollapse-hidden"
                  style="min-height: 0px;"
                >
                  <div
                    class="MuiCollapse-wrapper"
                  >
                    <div
                      class="MuiCollapse-wrapperInner"
                    >
                      <div
                        class="MuiPaper-root makeStyles-container-92 MuiPaper-elevation2 MuiPaper-rounded"
                      >
                        <button
                          class="MuiButtonBase-root MuiIconButton-root MuiIconButton-colorPrimary MuiIconButton-sizeSmall"
                          style="float: right;"
                          tabindex="0"
                          type="button"
                        >
                          <span
                            class="MuiIconButton-label"
                          >
                            <svg
                              aria-hidden="true"
                              class="MuiSvgIcon-root MuiSvgIcon-fontSizeSmall"
                              focusable="false"
                              viewBox="0 0 24 24"
                            >
                              <path
                                d="M19 6.41L17.59 5 12 10.59 6.41 5 5 6.41 10.59 12 5 17.59 6.41 19 12 13.41 17.59 19 19 17.59 13.41 12z"
                              />
                            </svg>
                          </span>
                        </button>
                      </div>
                    </div>
                  </div>
                </div>
                <div
                  class="MuiCollapse-root MuiCollapse-hidden"
                  style="min-height: 0px;"
                >
                  <div
                    class="MuiCollapse-wrapper"
                  >
                    <div
                      class="MuiCollapse-wrapperInner"
                    >
                      <div
                        class="MuiPaper-root makeStyles-container-92 MuiPaper-elevation2 MuiPaper-rounded"
                      >
                        <button
                          class="MuiButtonBase-root MuiIconButton-root MuiIconButton-colorPrimary MuiIconButton-sizeSmall"
                          style="float: right;"
                          tabindex="0"
                          type="button"
                        >
                          <span
                            class="MuiIconButton-label"
                          >
                            <svg
                              aria-hidden="true"
                              class="MuiSvgIcon-root MuiSvgIcon-fontSizeSmall"
                              focusable="false"
                              viewBox="0 0 24 24"
                            >
                              <path
                                d="M19 6.41L17.59 5 12 10.59 6.41 5 5 6.41 10.59 12 5 17.59 6.41 19 12 13.41 17.59 19 19 17.59 13.41 12z"
                              />
                            </svg>
                          </span>
                        </button>
                      </div>
                    </div>
                  </div>
                </div>
                <div
                  class="MuiCollapse-root MuiCollapse-hidden"
                  style="min-height: 0px;"
                >
                  <div
                    class="MuiCollapse-wrapper"
                  >
                    <div
                      class="MuiCollapse-wrapperInner"
                    />
                  </div>
                </div>
              </div>
              <hr
                class="MuiDivider-root makeStyles-divider-94"
              />
              <div
                class="makeStyles-container-95"
                id="id_overview_component"
              >
                <h1
                  class="MuiTypography-root makeStyles-title-96 MuiTypography-h1"
                >
                  []
                </h1>
                <div
                  class="makeStyles-textContainer-97"
                >
                  <div>
                    <span
                      class="MuiTypography-root MuiTypography-body2"
                    />
                  </div>
                  <div>
                    <span
                      class="MuiTypography-root MuiTypography-body2"
                    />
                  </div>
                  <div>
                    <span
                      class="MuiTypography-root MuiTypography-body2"
                    />
                  </div>
                </div>
                <div
                  class="makeStyles-textContainer-97"
                />
                <div
                  class="makeStyles-textContainer-97"
                />
                <hr
                  class="MuiDivider-root makeStyles-divider-94"
                />
                <div
                  class="MuiGrid-root"
                />
              </div>
            </div>
          </div>
        </div>
        <span
          aria-disabled="false"
          class="MuiButtonBase-root MuiButton-root makeStyles-root-110 MuiButton-contained makeStyles-scrollTopButton-113 makeStyles-display-114 MuiButton-containedPrimary"
          role="button"
          tabindex="0"
        >
          <span
            class="MuiButton-label makeStyles-rotate-111"
          >
            «
          </span>
        </span>
        <span
          aria-disabled="false"
          class="MuiButtonBase-root MuiButton-root makeStyles-root-110 MuiButton-contained makeStyles-scrollLeftButton-112 makeStyles-display-114 MuiButton-containedPrimary"
          role="button"
          tabindex="0"
        >
          <span
            class="MuiButton-label"
          >
            «
          </span>
        </span>
      </div>
    </div>
    <div
      class="MuiGrid-root makeStyles-footerContainer-5 MuiGrid-item"
    >
      <header
        class="MuiPaper-root MuiAppBar-root MuiAppBar-positionStatic MuiAppBar-colorPrimary makeStyles-appBar-116 MuiPaper-elevation4"
        data-testid="footer-bar-test-id"
      >
        <div
          class="MuiToolbar-root makeStyles-root-117 MuiToolbar-regular MuiToolbar-gutters makeStyles-gutters-118"
        >
          <div
            class="MuiGrid-root MuiGrid-container MuiGrid-item MuiGrid-align-items-xs-flex-start MuiGrid-grid-xs-4"
          >
            <p
              class="MuiTypography-root makeStyles-leftLabel-119 MuiTypography-body2"
            >
              <img
                alt="icon"
                class="makeStyles-img-115"
              />
               Powered by the 
              <a
                class="MuiTypography-root MuiLink-root MuiLink-underlineHover MuiTypography-colorPrimary"
              >
                .Stat Suite
              </a>
            </p>
          </div>
          <div
            class="MuiGrid-root MuiGrid-container MuiGrid-item MuiGrid-align-items-xs-flex-start MuiGrid-justify-content-xs-flex-end MuiGrid-grid-xs-8"
          >
            <p
              class="MuiTypography-root makeStyles-rightLabel-120 makeStyles-rtl-121 MuiTypography-body2"
            >
              The application source code is open-source, protected by copyright and provided without warranty.
              <br />
              For details see the licence declaration.
            </p>
          </div>
        </div>
      </header>
    </div>
  </div>
</div>
`;
