{
  "meta": {
      "schema": "https://raw.githubusercontent.com/sdmx-twg/sdmx-json/master/data-message/tools/schemas/2.0.0/sdmx-json-data-schema.json",
      "id": "IREF038097",
      "prepared": "2023-04-05T11:59:16Z",
      "test": true,
      "contentLanguages": [
          "en"
      ],
      "sender": {
          "id": "OECD-staging_-_DotStat_v8",
          "name": "unknown",
          "names": {
              "en": "unknown"
          }
      }
  },
  "data": {
      "dataSets": [
          {
              "structure": 0,
              "action": "Information",
              "links": [
                  {
                      "urn": "urn:sdmx:org.sdmx.infomodel.datastructure.DataStructure=OECD.PAC.DCMI:DSD_ITCS_HS2012(1.0)",
                      "rel": "DataStructure"
                  }
              ],
              "annotations": [
                  0,
                  1,
                  2,
                  3,
                  4,
                  5
              ],
              "attributes": [
                  0,
                  0
              ],
              "observations": {
                  "0:0:0:0:0:0:0": [
                      39490521437,
                      0,
                      0
                  ],
                  "0:0:0:0:0:0:1": [
                      37805463512,
                      0,
                      0
                  ],
                  "0:0:0:0:0:0:2": [
                      35070461605,
                      0,
                      0
                  ],
                  "0:0:0:0:0:0:3": [
                      46451612008,
                      0,
                      0
                  ],
                  "1:0:0:0:0:0:0": [
                      39838898880,
                      0,
                      0
                  ],
                  "1:0:0:0:0:0:1": [
                      39539825796,
                      0,
                      0
                  ],
                  "1:0:0:0:0:0:2": [
                      38877144400,
                      0,
                      0
                  ],
                  "1:0:0:0:0:0:3": [
                      44768946428,
                      0,
                      0
                  ],
                  "2:0:0:0:0:0:0": [
                      323378000000,
                      0,
                      0
                  ],
                  "2:0:0:0:0:0:1": [
                      311015000000,
                      0,
                      0
                  ],
                  "2:0:0:0:0:0:2": [
                      296131000000,
                      0,
                      0
                  ],
                  "2:0:0:0:0:0:3": [
                      336468000000,
                      0,
                      0
                  ],
                  "3:0:0:0:0:0:0": [
                      75481713821,
                      0,
                      0
                  ],
                  "3:0:0:0:0:0:1": [
                      69681396828,
                      0,
                      0
                  ],
                  "3:0:0:0:0:0:2": [
                      73479930615,
                      0,
                      0
                  ],
                  "3:0:0:0:0:0:3": [
                      94705004289,
                      0,
                      0
                  ],
                  "4:0:0:1:0:0:0": [
                      106931000000,
                      0,
                      0
                  ],
                  "4:0:0:1:0:0:1": [
                      101473000000,
                      0,
                      0
                  ],
                  "4:0:0:1:0:0:2": [
                      97524587378,
                      0,
                      0
                  ],
                  "5:0:0:0:0:0:0": [
                      5561475841,
                      0,
                      0
                  ],
                  "5:0:0:0:0:0:1": [
                      5228360516,
                      0,
                      0
                  ],
                  "5:0:0:0:0:0:2": [
                      4580415490,
                      0,
                      0
                  ],
                  "5:0:0:0:0:0:3": [
                      5973742650,
                      0,
                      0
                  ],
                  "6:0:0:0:0:0:0": [
                      17851477710,
                      0,
                      0
                  ],
                  "6:0:0:0:0:0:1": [
                      16807408470,
                      0,
                      0
                  ],
                  "6:0:0:0:0:0:2": [
                      16882322860,
                      0,
                      0
                  ],
                  "6:0:0:0:0:0:3": [
                      22280098648,
                      0,
                      0
                  ],
                  "5:0:0:1:0:0:0": [
                      7686033358,
                      0,
                      0
                  ],
                  "5:0:0:1:0:0:1": [
                      6579003950,
                      0,
                      0
                  ],
                  "5:0:0:1:0:0:2": [
                      5696680364,
                      0,
                      0
                  ],
                  "5:0:0:1:0:0:3": [
                      7838072416,
                      0,
                      0
                  ],
                  "7:0:0:0:0:0:0": [
                      604807000000,
                      0,
                      0
                  ],
                  "7:0:0:0:0:0:1": [
                      542172000000,
                      0,
                      0
                  ],
                  "7:0:0:0:0:0:2": [
                      512710000000,
                      0,
                      0
                  ],
                  "8:0:0:0:0:0:0": [
                      261815000000,
                      0,
                      0
                  ],
                  "8:0:0:0:0:0:1": [
                      251865000000,
                      0,
                      0
                  ],
                  "8:0:0:0:0:0:2": [
                      254169000000,
                      0,
                      0
                  ],
                  "8:0:0:0:0:0:3": [
                      317832000000,
                      0,
                      0
                  ],
                  "9:0:0:0:0:0:0": [
                      738201000000,
                      0,
                      0
                  ],
                  "9:0:0:0:0:0:1": [
                      705633000000,
                      0,
                      0
                  ],
                  "9:0:0:0:0:0:2": [
                      640807000000,
                      0,
                      0
                  ],
                  "9:0:0:0:0:0:3": [
                      757080000000,
                      0,
                      0
                  ],
                  "10:0:0:1:0:0:0": [
                      231152000000,
                      0,
                      0
                  ],
                  "10:0:0:1:0:0:1": [
                      210345000000,
                      0,
                      0
                  ],
                  "10:0:0:1:0:0:2": [
                      219514000000,
                      0,
                      0
                  ],
                  "10:0:0:1:0:0:3": [
                      271423000000,
                      0,
                      0
                  ],
                  "11:0:0:1:0:0:0": [
                      521041000000,
                      0,
                      0
                  ],
                  "11:0:0:1:0:0:1": [
                      514858000000,
                      0,
                      0
                  ],
                  "11:0:0:1:0:0:2": [
                      485489000000,
                      0,
                      0
                  ],
                  "11:0:0:1:0:0:3": [
                      623247000000,
                      0,
                      0
                  ],
                  "0:0:0:1:0:0:0": [
                      65141447585,
                      0,
                      0
                  ],
                  "0:0:0:1:0:0:1": [
                      62100390058,
                      0,
                      0
                  ],
                  "0:0:0:1:0:0:2": [
                      55533637799,
                      0,
                      0
                  ],
                  "0:0:0:1:0:0:3": [
                      74006313957,
                      0,
                      0
                  ],
                  "12:0:0:1:0:0:0": [
                      2611430000000,
                      0,
                      0
                  ],
                  "12:0:0:1:0:0:1": [
                      2567490000000,
                      0,
                      0
                  ],
                  "12:0:0:1:0:0:2": [
                      2405380000000,
                      0,
                      0
                  ],
                  "12:0:0:1:0:0:3": [
                      2932980000000,
                      0,
                      0
                  ],
                  "13:0:0:1:0:0:0": [
                      1292830000000,
                      0,
                      0
                  ],
                  "13:0:0:1:0:0:1": [
                      1240500000000,
                      0,
                      0
                  ],
                  "13:0:0:1:0:0:2": [
                      1173170000000,
                      0,
                      0
                  ],
                  "13:0:0:1:0:0:3": [
                      1422820000000,
                      0,
                      0
                  ],
                  "14:0:0:1:0:0:0": [
                      235519000000,
                      0,
                      0
                  ],
                  "14:0:0:1:0:0:1": [
                      221481000000,
                      0,
                      0
                  ],
                  "14:0:0:1:0:0:2": [
                      211973000000,
                      0,
                      0
                  ],
                  "14:0:0:1:0:0:3": [
                      261586000000,
                      0,
                      0
                  ],
                  "15:0:0:0:0:0:0": [
                      328528000000,
                      0,
                      0
                  ],
                  "15:0:0:0:0:0:1": [
                      337215000000,
                      0,
                      0
                  ],
                  "15:0:0:0:0:0:2": [
                      312081000000,
                      0,
                      0
                  ],
                  "15:0:0:0:0:0:3": [
                      391559000000,
                      0,
                      0
                  ],
                  "16:0:0:1:0:0:0": [
                      92952834583,
                      0,
                      0
                  ],
                  "16:0:0:1:0:0:1": [
                      90979103888,
                      0,
                      0
                  ],
                  "16:0:0:1:0:0:2": [
                      83379706078,
                      0,
                      0
                  ],
                  "16:0:0:1:0:0:3": [
                      104682000000,
                      0,
                      0
                  ],
                  "17:0:0:0:0:0:0": [
                      490821000000,
                      0,
                      0
                  ],
                  "17:0:0:0:0:0:1": [
                      468160000000,
                      0,
                      0
                  ],
                  "17:0:0:0:0:0:2": [
                      395692000000,
                      0,
                      0
                  ],
                  "17:0:0:0:0:0:3": [
                      467783000000,
                      0,
                      0
                  ],
                  "18:0:0:1:0:0:0": [
                      76584110000,
                      0,
                      0
                  ],
                  "18:0:0:1:0:0:1": [
                      76578559000,
                      0,
                      0
                  ],
                  "18:0:0:1:0:0:2": [
                      69260696000,
                      0,
                      0
                  ],
                  "18:0:0:1:0:0:3": [
                      92148236000,
                      0,
                      0
                  ],
                  "19:0:0:1:0:0:0": [
                      183749000000,
                      0,
                      0
                  ],
                  "19:0:0:1:0:0:1": [
                      178552000000,
                      0,
                      0
                  ],
                  "19:0:0:1:0:0:2": [
                      170678000000,
                      0,
                      0
                  ],
                  "19:0:0:1:0:0:3": [
                      208952000000,
                      0,
                      0
                  ],
                  "20:0:0:0:0:0:0": [
                      15127093074,
                      0,
                      0
                  ],
                  "20:0:0:0:0:0:1": [
                      14673805495,
                      0,
                      0
                  ],
                  "20:0:0:0:0:0:2": [
                      13504406342,
                      0,
                      0
                  ],
                  "20:0:0:0:0:0:3": [
                      16247126542,
                      0,
                      0
                  ],
                  "21:0:0:1:0:0:0": [
                      95629298715,
                      0,
                      0
                  ],
                  "21:0:0:1:0:0:1": [
                      89929060611,
                      0,
                      0
                  ],
                  "21:0:0:1:0:0:2": [
                      77612120550,
                      0,
                      0
                  ],
                  "21:0:0:1:0:0:3": [
                      98337110276,
                      0,
                      0
                  ],
                  "22:0:0:1:0:0:0": [
                      36267696759,
                      0,
                      0
                  ],
                  "22:0:0:1:0:0:1": [
                      38162054092,
                      0,
                      0
                  ],
                  "22:0:0:1:0:0:2": [
                      36512669081,
                      0,
                      0
                  ],
                  "22:0:0:1:0:0:3": [
                      49607331903,
                      0,
                      0
                  ],
                  "18:0:0:0:0:0:0": [
                      61906412000,
                      0,
                      0
                  ],
                  "18:0:0:0:0:0:1": [
                      58488466000,
                      0,
                      0
                  ],
                  "18:0:0:0:0:0:2": [
                      50153246000,
                      0,
                      0
                  ],
                  "18:0:0:0:0:0:3": [
                      60156814000,
                      0,
                      0
                  ],
                  "23:0:0:1:0:0:0": [
                      78352161411,
                      0,
                      0
                  ],
                  "23:0:0:1:0:0:1": [
                      73719857019,
                      0,
                      0
                  ],
                  "23:0:0:1:0:0:2": [
                      67878406672,
                      0,
                      0
                  ],
                  "23:0:0:1:0:0:3": [
                      85992875222,
                      0,
                      0
                  ],
                  "24:0:0:1:0:0:0": [
                      464294000000,
                      0,
                      0
                  ],
                  "24:0:0:1:0:0:1": [
                      455289000000,
                      0,
                      0
                  ],
                  "24:0:0:1:0:0:2": [
                      383306000000,
                      0,
                      0
                  ],
                  "24:0:0:1:0:0:3": [
                      506565000000,
                      0,
                      0
                  ],
                  "23:0:0:0:0:0:0": [
                      75258290459,
                      0,
                      0
                  ],
                  "23:0:0:0:0:0:1": [
                      72839176013,
                      0,
                      0
                  ],
                  "23:0:0:0:0:0:2": [
                      65599589520,
                      0,
                      0
                  ],
                  "23:0:0:0:0:0:3": [
                      81326553756,
                      0,
                      0
                  ],
                  "25:0:0:1:0:0:0": [
                      459945000000,
                      0,
                      0
                  ],
                  "25:0:0:1:0:0:1": [
                      453411000000,
                      0,
                      0
                  ],
                  "25:0:0:1:0:0:2": [
                      404486000000,
                      0,
                      0
                  ],
                  "25:0:0:1:0:0:3": [
                      489346000000,
                      0,
                      0
                  ],
                  "26:0:0:1:0:0:0": [
                      116057000000,
                      0,
                      0
                  ],
                  "26:0:0:1:0:0:1": [
                      116556000000,
                      0,
                      0
                  ],
                  "26:0:0:1:0:0:2": [
                      112624000000,
                      0,
                      0
                  ],
                  "26:0:0:1:0:0:3": [
                      138905000000,
                      0,
                      0
                  ]
              }
          }
      ],
      "structures": [
          {
              "name": "International Trade Commoditiy Statistics (by HS2012)",
              "names": {
                  "en": "International Trade Commoditiy Statistics (by HS2012)"
              },
              "dimensions": {
                  "dataSet": [],
                  "series": [],
                  "observation": [
                      {
                          "id": "REF_AREA",
                          "name": "Reference area",
                          "names": {
                              "en": "Reference area"
                          },
                          "keyPosition": 0,
                          "roles": [
                              "REF_AREA"
                          ],
                          "values": [
                              {
                                  "id": "GRC",
                                  "order": 13,
                                  "name": "Greece",
                                  "names": {
                                      "en": "Greece"
                                  },
                                  "annotations": [
                                      6
                                  ]
                              },
                              {
                                  "id": "NZL",
                                  "order": 26,
                                  "name": "New Zealand",
                                  "names": {
                                      "en": "New Zealand"
                                  },
                                  "annotations": [
                                      7
                                  ]
                              },
                              {
                                  "id": "BEL",
                                  "order": 2,
                                  "name": "Belgium",
                                  "names": {
                                      "en": "Belgium"
                                  },
                                  "annotations": [
                                      8
                                  ]
                              },
                              {
                                  "id": "CHL",
                                  "order": 4,
                                  "name": "Chile",
                                  "names": {
                                      "en": "Chile"
                                  },
                                  "annotations": [
                                      9
                                  ]
                              },
                              {
                                  "id": "IRL",
                                  "order": 16,
                                  "name": "Ireland",
                                  "names": {
                                      "en": "Ireland"
                                  },
                                  "annotations": [
                                      10
                                  ]
                              },
                              {
                                  "id": "ISL",
                                  "order": 15,
                                  "name": "Iceland",
                                  "names": {
                                      "en": "Iceland"
                                  },
                                  "annotations": [
                                      11
                                  ]
                              },
                              {
                                  "id": "EST",
                                  "order": 9,
                                  "name": "Estonia",
                                  "names": {
                                      "en": "Estonia"
                                  },
                                  "annotations": [
                                      12
                                  ]
                              },
                              {
                                  "id": "KOR",
                                  "order": 20,
                                  "name": "Korea",
                                  "names": {
                                      "en": "Korea"
                                  },
                                  "annotations": [
                                      13
                                  ]
                              },
                              {
                                  "id": "POL",
                                  "order": 28,
                                  "name": "Poland",
                                  "names": {
                                      "en": "Poland"
                                  },
                                  "annotations": [
                                      14
                                  ]
                              },
                              {
                                  "id": "JPN",
                                  "order": 19,
                                  "name": "Japan",
                                  "names": {
                                      "en": "Japan"
                                  },
                                  "annotations": [
                                      15
                                  ]
                              },
                              {
                                  "id": "TUR",
                                  "order": 35,
                                  "name": "Türkiye",
                                  "names": {
                                      "en": "Türkiye"
                                  },
                                  "annotations": [
                                      16
                                  ]
                              },
                              {
                                  "id": "NLD",
                                  "order": 25,
                                  "name": "Netherlands",
                                  "names": {
                                      "en": "Netherlands"
                                  },
                                  "annotations": [
                                      17
                                  ]
                              },
                              {
                                  "id": "USA",
                                  "order": 37,
                                  "name": "United States",
                                  "names": {
                                      "en": "United States"
                                  },
                                  "annotations": [
                                      18
                                  ]
                              },
                              {
                                  "id": "DEU",
                                  "order": 12,
                                  "name": "Germany",
                                  "names": {
                                      "en": "Germany"
                                  },
                                  "annotations": [
                                      19
                                  ]
                              },
                              {
                                  "id": "AUS",
                                  "order": 0,
                                  "name": "Australia",
                                  "names": {
                                      "en": "Australia"
                                  },
                                  "annotations": [
                                      20
                                  ]
                              },
                              {
                                  "id": "ESP",
                                  "order": 32,
                                  "name": "Spain",
                                  "names": {
                                      "en": "Spain"
                                  },
                                  "annotations": [
                                      21
                                  ]
                              },
                              {
                                  "id": "SVK",
                                  "order": 30,
                                  "name": "Slovak Republic",
                                  "names": {
                                      "en": "Slovak Republic"
                                  },
                                  "annotations": [
                                      22
                                  ]
                              },
                              {
                                  "id": "GBR",
                                  "order": 36,
                                  "name": "United Kingdom",
                                  "names": {
                                      "en": "United Kingdom"
                                  },
                                  "annotations": [
                                      23
                                  ]
                              },
                              {
                                  "id": "ISR",
                                  "order": 17,
                                  "name": "Israel",
                                  "names": {
                                      "en": "Israel"
                                  },
                                  "annotations": [
                                      24
                                  ]
                              },
                              {
                                  "id": "CZE",
                                  "order": 7,
                                  "name": "Czech Republic",
                                  "names": {
                                      "en": "Czech Republic"
                                  },
                                  "annotations": [
                                      25
                                  ]
                              },
                              {
                                  "id": "LUX",
                                  "order": 23,
                                  "name": "Luxembourg",
                                  "names": {
                                      "en": "Luxembourg"
                                  },
                                  "annotations": [
                                      26
                                  ]
                              },
                              {
                                  "id": "PRT",
                                  "order": 29,
                                  "name": "Portugal",
                                  "names": {
                                      "en": "Portugal"
                                  },
                                  "annotations": [
                                      27
                                  ]
                              },
                              {
                                  "id": "SVN",
                                  "order": 31,
                                  "name": "Slovenia",
                                  "names": {
                                      "en": "Slovenia"
                                  },
                                  "annotations": [
                                      28
                                  ]
                              },
                              {
                                  "id": "FIN",
                                  "order": 10,
                                  "name": "Finland",
                                  "names": {
                                      "en": "Finland"
                                  },
                                  "annotations": [
                                      29
                                  ]
                              },
                              {
                                  "id": "MEX",
                                  "order": 24,
                                  "name": "Mexico",
                                  "names": {
                                      "en": "Mexico"
                                  },
                                  "annotations": [
                                      30
                                  ]
                              },
                              {
                                  "id": "CAN",
                                  "order": 3,
                                  "name": "Canada",
                                  "names": {
                                      "en": "Canada"
                                  },
                                  "annotations": [
                                      31
                                  ]
                              },
                              {
                                  "id": "HUN",
                                  "order": 14,
                                  "name": "Hungary",
                                  "names": {
                                      "en": "Hungary"
                                  },
                                  "annotations": [
                                      32
                                  ]
                              }
                          ]
                      },
                      {
                          "id": "COUNTERPART_AREA",
                          "name": "Counterpart area",
                          "names": {
                              "en": "Counterpart area"
                          },
                          "keyPosition": 1,
                          "roles": [
                              "COUNTERPART_AREA"
                          ],
                          "values": [
                              {
                                  "id": "W",
                                  "order": 440,
                                  "name": "World",
                                  "names": {
                                      "en": "World"
                                  },
                                  "annotations": [
                                      33,
                                      34
                                  ]
                              }
                          ]
                      },
                      {
                          "id": "COMMODITY",
                          "name": "Commodity",
                          "names": {
                              "en": "Commodity"
                          },
                          "keyPosition": 2,
                          "roles": [
                              "COMMODITY"
                          ],
                          "values": [
                              {
                                  "id": "HS12_TOTAL",
                                  "order": 0,
                                  "name": "All Commodities",
                                  "names": {
                                      "en": "All Commodities"
                                  },
                                  "annotations": [
                                      35
                                  ]
                              }
                          ]
                      },
                      {
                          "id": "TRADE_FLOW",
                          "name": "Trade flow",
                          "names": {
                              "en": "Trade flow"
                          },
                          "keyPosition": 3,
                          "roles": [
                              "TRADE_FLOW"
                          ],
                          "values": [
                              {
                                  "id": "X",
                                  "order": 0,
                                  "name": "Exports",
                                  "names": {
                                      "en": "Exports"
                                  }
                              },
                              {
                                  "id": "M",
                                  "order": 2,
                                  "name": "Imports",
                                  "names": {
                                      "en": "Imports"
                                  }
                              }
                          ]
                      },
                      {
                          "id": "MEASURE",
                          "name": "Measure",
                          "names": {
                              "en": "Measure"
                          },
                          "keyPosition": 4,
                          "roles": [
                              "MEASURE"
                          ],
                          "values": [
                              {
                                  "id": "RV",
                                  "order": 2,
                                  "name": "Reported value",
                                  "names": {
                                      "en": "Reported value"
                                  },
                                  "annotations": [
                                      36
                                  ]
                              }
                          ]
                      },
                      {
                          "id": "FREQ",
                          "name": "Frequency of observation",
                          "names": {
                              "en": "Frequency of observation"
                          },
                          "keyPosition": 5,
                          "roles": [
                              "FREQ"
                          ],
                          "values": [
                              {
                                  "id": "A",
                                  "order": 0,
                                  "name": "Annual",
                                  "names": {
                                      "en": "Annual"
                                  }
                              }
                          ]
                      },
                      {
                          "id": "TIME_PERIOD",
                          "name": "Time period",
                          "names": {
                              "en": "Time period"
                          },
                          "keyPosition": 6,
                          "roles": [
                              "TIME_PERIOD"
                          ],
                          "values": [
                              {
                                  "start": "2018-01-01T00:00:00",
                                  "end": "2018-12-31T23:59:59",
                                  "id": "2018",
                                  "name": "2018",
                                  "names": {
                                      "en": "2018"
                                  }
                              },
                              {
                                  "start": "2019-01-01T00:00:00",
                                  "end": "2019-12-31T23:59:59",
                                  "id": "2019",
                                  "name": "2019",
                                  "names": {
                                      "en": "2019"
                                  }
                              },
                              {
                                  "start": "2020-01-01T00:00:00",
                                  "end": "2020-12-31T23:59:59",
                                  "id": "2020",
                                  "name": "2020",
                                  "names": {
                                      "en": "2020"
                                  }
                              },
                              {
                                  "start": "2021-01-01T00:00:00",
                                  "end": "2021-12-31T23:59:59",
                                  "id": "2021",
                                  "name": "2021",
                                  "names": {
                                      "en": "2021"
                                  }
                              }
                          ]
                      }
                  ]
              },
              "attributes": {
                  "dataSet": [
                      {
                          "id": "UNIT_MULT",
                          "name": "Unit multiplier",
                          "names": {
                              "en": "Unit multiplier"
                          },
                          "roles": [
                              "UNIT_MULT"
                          ],
                          "relationship": {
                              "dataflow": {}
                          },
                          "values": [
                              {
                                  "id": "0",
                                  "order": 0,
                                  "name": "Units",
                                  "names": {
                                      "en": "Units"
                                  }
                              }
                          ]
                      },
                      {
                          "id": "UNIT_MEASURE",
                          "name": "Unit of measure",
                          "names": {
                              "en": "Unit of measure"
                          },
                          "roles": [
                              "UNIT_MEASURE"
                          ],
                          "relationship": {
                              "dataflow": {}
                          },
                          "values": [
                              {
                                  "id": "USD",
                                  "order": 235,
                                  "name": "US dollar",
                                  "names": {
                                      "en": "US dollar"
                                  }
                              }
                          ]
                      }
                  ],
                  "dimensionGroup": [],
                  "series": [],
                  "observation": [
                      {
                          "id": "OBS_STATUS",
                          "name": "Observation status",
                          "names": {
                              "en": "Observation status"
                          },
                          "roles": [
                              "OBS_STATUS"
                          ],
                          "relationship": {
                              "observation": {}
                          },
                          "values": [
                              {
                                  "id": "A",
                                  "order": 0,
                                  "name": "Normal value",
                                  "names": {
                                      "en": "Normal value"
                                  }
                              }
                          ]
                      },
                      {
                          "id": "DECIMALS",
                          "name": "Number of decimals",
                          "names": {
                              "en": "Number of decimals"
                          },
                          "roles": [
                              "DECIMALS"
                          ],
                          "relationship": {
                              "observation": {}
                          },
                          "values": [
                              {
                                  "id": "0",
                                  "order": 0,
                                  "name": "Zero",
                                  "names": {
                                      "en": "Zero"
                                  }
                              }
                          ]
                      }
                  ]
              },
              "annotations": [
                  {
                      "type": "NonProductionDataflow",
                      "text": "true",
                      "texts": {
                          "en": "true"
                      }
                  },
                  {
                      "id": "@SDMX",
                      "title": "REF_AREA",
                      "type": "LAYOUT_ROW"
                  },
                  {
                      "id": "@SDMX",
                      "title": "TRADE_FLOW,TIME_PERIOD",
                      "type": "LAYOUT_COLUMN"
                  },
                  {
                      "id": "@SDMX",
                      "title": "COMMODITY",
                      "type": "LAYOUT_ROW_SECTION"
                  },
                  {
                      "id": "@SDMX",
                      "title": "OBS_STATUS=A,UNIT_MULT=0,FREQ=A,MEASURE=RV",
                      "type": "NOT_DISPLAYED"
                  },
                  {
                      "id": "@SDMX",
                      "title": "COUNTERPART_AREA=W,COMMODITY=HS12_TOTAL,",
                      "type": "DEFAULT"
                  },
                  {
                      "id": "@SDMX",
                      "type": "ORDER",
                      "text": "140",
                      "texts": {
                          "en": "140"
                      }
                  },
                  {
                      "id": "@SDMX",
                      "type": "ORDER",
                      "text": "270",
                      "texts": {
                          "en": "270"
                      }
                  },
                  {
                      "id": "@SDMX",
                      "type": "ORDER",
                      "text": "30",
                      "texts": {
                          "en": "30"
                      }
                  },
                  {
                      "id": "@SDMX",
                      "type": "ORDER",
                      "text": "50",
                      "texts": {
                          "en": "50"
                      }
                  },
                  {
                      "id": "@SDMX",
                      "type": "ORDER",
                      "text": "170",
                      "texts": {
                          "en": "170"
                      }
                  },
                  {
                      "id": "@SDMX",
                      "type": "ORDER",
                      "text": "160",
                      "texts": {
                          "en": "160"
                      }
                  },
                  {
                      "id": "@SDMX",
                      "type": "ORDER",
                      "text": "100",
                      "texts": {
                          "en": "100"
                      }
                  },
                  {
                      "id": "@SDMX",
                      "type": "ORDER",
                      "text": "210",
                      "texts": {
                          "en": "210"
                      }
                  },
                  {
                      "id": "@SDMX",
                      "type": "ORDER",
                      "text": "290",
                      "texts": {
                          "en": "290"
                      }
                  },
                  {
                      "id": "@SDMX",
                      "type": "ORDER",
                      "text": "200",
                      "texts": {
                          "en": "200"
                      }
                  },
                  {
                      "id": "@SDMX",
                      "type": "ORDER",
                      "text": "360",
                      "texts": {
                          "en": "360"
                      }
                  },
                  {
                      "id": "@SDMX",
                      "type": "ORDER",
                      "text": "260",
                      "texts": {
                          "en": "260"
                      }
                  },
                  {
                      "id": "@SDMX",
                      "type": "ORDER",
                      "text": "380",
                      "texts": {
                          "en": "380"
                      }
                  },
                  {
                      "id": "@SDMX",
                      "type": "ORDER",
                      "text": "130",
                      "texts": {
                          "en": "130"
                      }
                  },
                  {
                      "id": "@SDMX",
                      "type": "ORDER",
                      "text": "10",
                      "texts": {
                          "en": "10"
                      }
                  },
                  {
                      "id": "@SDMX",
                      "type": "ORDER",
                      "text": "330",
                      "texts": {
                          "en": "330"
                      }
                  },
                  {
                      "id": "@SDMX",
                      "type": "ORDER",
                      "text": "310",
                      "texts": {
                          "en": "310"
                      }
                  },
                  {
                      "id": "@SDMX",
                      "type": "ORDER",
                      "text": "370",
                      "texts": {
                          "en": "370"
                      }
                  },
                  {
                      "id": "@SDMX",
                      "type": "ORDER",
                      "text": "180",
                      "texts": {
                          "en": "180"
                      }
                  },
                  {
                      "id": "@SDMX",
                      "type": "ORDER",
                      "text": "80",
                      "texts": {
                          "en": "80"
                      }
                  },
                  {
                      "id": "@SDMX",
                      "type": "ORDER",
                      "text": "240",
                      "texts": {
                          "en": "240"
                      }
                  },
                  {
                      "id": "@SDMX",
                      "type": "ORDER",
                      "text": "300",
                      "texts": {
                          "en": "300"
                      }
                  },
                  {
                      "id": "@SDMX",
                      "type": "ORDER",
                      "text": "320",
                      "texts": {
                          "en": "320"
                      }
                  },
                  {
                      "id": "@SDMX",
                      "type": "ORDER",
                      "text": "110",
                      "texts": {
                          "en": "110"
                      }
                  },
                  {
                      "id": "@SDMX",
                      "type": "ORDER",
                      "text": "250",
                      "texts": {
                          "en": "250"
                      }
                  },
                  {
                      "id": "@SDMX",
                      "type": "ORDER",
                      "text": "40",
                      "texts": {
                          "en": "40"
                      }
                  },
                  {
                      "id": "@SDMX",
                      "type": "ORDER",
                      "text": "150",
                      "texts": {
                          "en": "150"
                      }
                  },
                  {
                      "id": "@SDMX",
                      "title": "A+F+E+O+S+ATA+W_X+W_O",
                      "type": "COMP_RULE"
                  },
                  {
                      "id": "@SDMX",
                      "type": "ORDER",
                      "text": "4410",
                      "texts": {
                          "en": "4410"
                      }
                  },
                  {
                      "id": "@SDMX",
                      "type": "ORDER",
                      "text": "1",
                      "texts": {
                          "en": "1"
                      }
                  },
                  {
                      "id": "@SDMX",
                      "type": "ORDER",
                      "text": "10",
                      "texts": {
                          "en": "10"
                      }
                  },
                  {
                    "type": "COMBINED_CONCEPTS",
                    "title": "COMBINED_UNIT_MEASURE:UNIT_MEASURE,UNIT_MULT",
                    "texts": { "en": "COMBINED_UNIT_MEASURE:Combined unit of measure" }
                  }
              ],
              "dataSets": [
                  0
              ]
          }
      ]
  },
  "errors": []
}