{
    "data": {
        "dataflows": [
            {
                "id": "DF_TEST_GREGORIANDAY",
                "links": [
                    {
                        "rel": "self",
                        "urn": "urn:sdmx:org.sdmx.infomodel.datastructure.Dataflow=OECD:DF_TEST_GREGORIANDAY(1.0)"
                    },
                    {
                        "rel": "structure",
                        "urn": "urn:sdmx:org.sdmx.infomodel.datastructure.DataStructure=OECD:DSD_DATATYPE_GREGORIANDAY(1.0)"
                    }
                ],
                "version": "1.0",
                "agencyID": "OECD",
                "isFinal": true,
                "name": "Test of dataflow with a gregorian day data type representation",
                "names": {
                    "en": "Test of dataflow with a gregorian day data type representation"
                },
                "annotations": [],
                "structure": "urn:sdmx:org.sdmx.infomodel.datastructure.DataStructure=OECD:DSD_DATATYPE_GREGORIANDAY(1.0)"
            }
        ],
        "conceptSchemes": [
            {
                "id": "CS_TOURISM",
                "links": [
                    {
                        "rel": "self",
                        "urn": "urn:sdmx:org.sdmx.infomodel.conceptscheme.ConceptScheme=OECD:CS_TOURISM(1.0)"
                    }
                ],
                "version": "1.0",
                "agencyID": "OECD",
                "isFinal": true,
                "name": "Concept scheme for tourism",
                "names": {
                    "en": "Concept scheme for tourism"
                },
                "isPartial": true,
                "concepts": [
                    {
                        "id": "DATATYPE",
                        "name": "Reference area",
                        "names": {
                            "en": "Reference area"
                        },
                        "links": [
                            {
                                "rel": "self",
                                "urn": "urn:sdmx:org.sdmx.infomodel.conceptscheme.Concept=OECD:CS_TOURISM(1.0).REF_AREA"
                            }
                        ]
                    },
                    {
                        "id": "VALUES",
                        "name": "Measure",
                        "names": {
                            "en": "Measure"
                        },
                        "links": [
                            {
                                "rel": "self",
                                "urn": "urn:sdmx:org.sdmx.infomodel.conceptscheme.Concept=OECD:CS_TOURISM(1.0).MEASURE"
                            }
                        ]
                    },
                    {
                        "id": "PREFSCALE",
                        "name": "Activity",
                        "names": {
                            "en": "Activity"
                        },
                        "links": [
                            {
                                "rel": "self",
                                "urn": "urn:sdmx:org.sdmx.infomodel.conceptscheme.Concept=OECD:CS_TOURISM(1.0).ACTIVITY"
                            }
                        ]
                    },
                    {
                        "id": "OBS_VALUE",
                        "name": "Observation value",
                        "names": {
                            "en": "Observation value"
                        },
                        "links": [
                            {
                                "rel": "self",
                                "urn": "urn:sdmx:org.sdmx.infomodel.conceptscheme.Concept=OECD:CS_TOURISM(1.0).OBS_VALUE"
                            }
                        ]
                    },
                    {
                        "id": "DECIMALS",
                        "name": "Decimals",
                        "names": {
                            "en": "Decimals"
                        },
                        "links": [
                            {
                                "rel": "self",
                                "urn": "urn:sdmx:org.sdmx.infomodel.conceptscheme.Concept=OECD:CS_TOURISM(1.0).DECIMALS"
                            }
                        ]
                    }
                ]
            }
        ],
        "codelists": [
            {
                "id": "CL_DATATYPE",
                "links": [
                    {
                        "rel": "self",
                        "urn": "urn:sdmx:org.sdmx.infomodel.codelist.Codelist=OECD:CL_TOURISM_ACTIVITY(1.0)"
                    }
                ],
                "version": "1.0",
                "agencyID": "OECD",
                "isFinal": true,
                "name": "Activity",
                "names": {
                    "en": "Activity"
                },
                "isPartial": false,
                "codes": [
                    {
                        "id": "BOOLEAN",
                        "name": "Tourism",
                        "names": {
                            "en": "Tourism"
                        },
                        "links": [
                            {
                                "rel": "self",
                                "urn": "urn:sdmx:org.sdmx.infomodel.codelist.Code=OECD:CL_TOURISM_ACTIVITY(1.0).AGG_TOUR"
                            }
                        ]
                    },
                    {
                        "id": "STRING",
                        "name": "Tourism industries",
                        "names": {
                            "en": "Tourism industries"
                        },
                        "links": [
                            {
                                "rel": "self",
                                "urn": "urn:sdmx:org.sdmx.infomodel.codelist.Code=OECD:CL_TOURISM_ACTIVITY(1.0).IND"
                            }
                        ],
                        "parent": "AGG_TOUR"
                    },
                    {
                        "id": "MONTH",
                        "name": "Accommodation services for visitors",
                        "names": {
                            "en": "Accommodation services for visitors"
                        },
                        "description": "5510+5520+5590+6810+6820",
                        "descriptions": {
                            "en": "5510+5520+5590+6810+6820"
                        },
                        "links": [
                            {
                                "rel": "self",
                                "urn": "urn:sdmx:org.sdmx.infomodel.codelist.Code=OECD:CL_TOURISM_ACTIVITY(1.0).ACCOM_SVCS"
                            }
                        ],
                        "parent": "IND"
                    },
                    {
                        "id": "MONTHDAY",
                        "name": "Hotels and similar establishments",
                        "names": {
                            "en": "Hotels and similar establishments"
                        },
                        "description": "5510",
                        "descriptions": {
                            "en": "5510"
                        },
                        "links": [
                            {
                                "rel": "self",
                                "urn": "urn:sdmx:org.sdmx.infomodel.codelist.Code=OECD:CL_TOURISM_ACTIVITY(1.0).ACCOM_SVCS_HOTELS"
                            }
                        ],
                        "parent": "ACCOM_SVCS"
                    },
                    {
                        "id": "DAY",
                        "name": "Food and beverage serving industries",
                        "names": {
                            "en": "Food and beverage serving industries"
                        },
                        "description": "5610+5629+5630",
                        "descriptions": {
                            "en": "5610+5629+5630"
                        },
                        "links": [
                            {
                                "rel": "self",
                                "urn": "urn:sdmx:org.sdmx.infomodel.codelist.Code=OECD:CL_TOURISM_ACTIVITY(1.0).FOOD_BEV"
                            }
                        ],
                        "parent": "IND"
                    },
                    {
                        "id": "NUMBER",
                        "name": "Passenger transport",
                        "names": {
                            "en": "Passenger transport"
                        },
                        "description": "5110+4911+4922+5011+5021",
                        "descriptions": {
                            "en": "5110+4911+4922+5011+5021"
                        },
                        "links": [
                            {
                                "rel": "self",
                                "urn": "urn:sdmx:org.sdmx.infomodel.codelist.Code=OECD:CL_TOURISM_ACTIVITY(1.0).TRANSPORT"
                            }
                        ],
                        "parent": "IND"
                    },
                    {
                        "id": "HTML",
                        "name": "Air passenger transport",
                        "names": {
                            "en": "Air passenger transport"
                        },
                        "description": "5110",
                        "descriptions": {
                            "en": "5110"
                        },
                        "links": [
                            {
                                "rel": "self",
                                "urn": "urn:sdmx:org.sdmx.infomodel.codelist.Code=OECD:CL_TOURISM_ACTIVITY(1.0).TRANSPORT_AIR"
                            }
                        ],
                        "parent": "TRANSPORT"
                    }
                ]
            },
            {
                "id": "CL_VALUES",
                "links": [
                    {
                        "rel": "self",
                        "urn": "urn:sdmx:org.sdmx.infomodel.codelist.Codelist=OECD:CL_TOURISM_MEASURE(2.0)"
                    }
                ],
                "version": "1.0",
                "agencyID": "OECD",
                "isFinal": true,
                "name": "Measure",
                "names": {
                    "en": "Measure"
                },
                "isPartial": false,
                "codes": [
                    {
                        "id": "1",
                        "name": "Share of GDP (direct)",
                        "names": {
                            "en": "Share of GDP (direct)"
                        },
                        "links": [
                            {
                                "rel": "self",
                                "urn": "urn:sdmx:org.sdmx.infomodel.codelist.Code=OECD:CL_TOURISM_MEASURE(2.0).GDP_SH"
                            }
                        ]
                    },
                    {
                        "id": "2",
                        "name": "Share of employment (direct)",
                        "names": {
                            "en": "Share of employment (direct)"
                        },
                        "links": [
                            {
                                "rel": "self",
                                "urn": "urn:sdmx:org.sdmx.infomodel.codelist.Code=OECD:CL_TOURISM_MEASURE(2.0).EMP_SH"
                            }
                        ]
                    },
                    {
                        "id": "3",
                        "name": "Total visitors",
                        "names": {
                            "en": "Total visitors"
                        },
                        "links": [
                            {
                                "rel": "self",
                                "urn": "urn:sdmx:org.sdmx.infomodel.codelist.Code=OECD:CL_TOURISM_MEASURE(2.0).TOTAL_VISITORS"
                            }
                        ]
                    },
                    {
                        "id": "4",
                        "name": "Nights spent in tourism accommodation establishments",
                        "names": {
                            "en": "Nights spent in tourism accommodation establishments"
                        },
                        "links": [
                            {
                                "rel": "self",
                                "urn": "urn:sdmx:org.sdmx.infomodel.codelist.Code=OECD:CL_TOURISM_MEASURE(2.0).NIGHTS_ACCOM"
                            }
                        ]
                    },
                    {
                        "id": "5",
                        "name": "Enterprises",
                        "names": {
                            "en": "Enterprises"
                        },
                        "links": [
                            {
                                "rel": "self",
                                "urn": "urn:sdmx:org.sdmx.infomodel.codelist.Code=OECD:CL_TOURISM_MEASURE(2.0).ENT"
                            }
                        ]
                    },
                    {
                        "id": "6",
                        "name": "Employment",
                        "names": {
                            "en": "Employment"
                        },
                        "links": [
                            {
                                "rel": "self",
                                "urn": "urn:sdmx:org.sdmx.infomodel.codelist.Code=OECD:CL_TOURISM_MEASURE(2.0).EMP"
                            }
                        ]
                    },
                    {
                        "id": "7",
                        "name": "Consumption",
                        "names": {
                            "en": "Consumption"
                        },
                        "links": [
                            {
                                "rel": "self",
                                "urn": "urn:sdmx:org.sdmx.infomodel.codelist.Code=OECD:CL_TOURISM_MEASURE(2.0).CONS"
                            }
                        ]
                    },
                    {
                        "id": "8",
                        "name": "Expenditure",
                        "names": {
                            "en": "Expenditure"
                        },
                        "links": [
                            {
                                "rel": "self",
                                "urn": "urn:sdmx:org.sdmx.infomodel.codelist.Code=OECD:CL_TOURISM_MEASURE(2.0).EXP"
                            }
                        ],
                        "parent": "CONS"
                    },
                    {
                        "id": "9",
                        "name": "Consumption (Other)",
                        "names": {
                            "en": "Consumption (Other)"
                        },
                        "links": [
                            {
                                "rel": "self",
                                "urn": "urn:sdmx:org.sdmx.infomodel.codelist.Code=OECD:CL_TOURISM_MEASURE(2.0).CONS_O"
                            }
                        ],
                        "parent": "CONS"
                    },
                    {
                        "id": "10",
                        "name": "Receipts",
                        "names": {
                            "en": "Receipts"
                        },
                        "links": [
                            {
                                "rel": "self",
                                "urn": "urn:sdmx:org.sdmx.infomodel.codelist.Code=OECD:CL_TOURISM_MEASURE(2.0).REC"
                            }
                        ]
                    },
                    {
                        "id": "11",
                        "name": "Share of GVA (direct)",
                        "names": {
                            "en": "Share of GVA (direct)"
                        },
                        "links": [
                            {
                                "rel": "self",
                                "urn": "urn:sdmx:org.sdmx.infomodel.codelist.Code=OECD:CL_TOURISM_MEASURE(2.0).GVA_SH"
                            }
                        ]
                    }
                ]
            },
            {
                "id": "CL_PREFSCALE",
                "links": [
                    {
                        "rel": "self",
                        "urn": "urn:sdmx:org.sdmx.infomodel.codelist.Codelist=OECD:CL_UNIT_MEASURE(1.1)"
                    }
                ],
                "version": "1.0",
                "agencyID": "OECD",
                "isFinal": true,
                "name": "Codelist for Unit of measure",
                "names": {
                    "en": "Codelist for Unit of measure"
                },
                "description": "Unit in which the data values are expressed.",
                "descriptions": {
                    "en": "Unit in which the data values are expressed."
                },
                "isPartial": false,
                "codes": [
                    {
                        "id": "0",
                        "name": "Percentage of GDP",
                        "names": {
                            "en": "Percentage of GDP"
                        },
                        "links": [
                            {
                                "rel": "self",
                                "urn": "urn:sdmx:org.sdmx.infomodel.codelist.Code=OECD:CL_UNIT_MEASURE(1.1).GDP_PERC"
                            }
                        ]
                    },
                    {
                        "id": "2",
                        "name": "Percentage of total employment",
                        "names": {
                            "en": "Percentage of total employment"
                        },
                        "links": [
                            {
                                "rel": "self",
                                "urn": "urn:sdmx:org.sdmx.infomodel.codelist.Code=OECD:CL_UNIT_MEASURE(1.1).EMP_PERC"
                            }
                        ]
                    },
                    {
                        "id": "-3",
                        "name": "Percentage of total GVA",
                        "names": {
                            "en": "Percentage of total GVA"
                        },
                        "links": [
                            {
                                "rel": "self",
                                "urn": "urn:sdmx:org.sdmx.infomodel.codelist.Code=OECD:CL_UNIT_MEASURE(1.1).GVA_PERC"
                            }
                        ]
                    }
                ]
            },
            {
                "id": "CL_DECIMALS",
                "links": [
                    {
                        "rel": "self",
                        "urn": "urn:sdmx:org.sdmx.infomodel.codelist.Codelist=SDMX:CL_DECIMALS(1.0)"
                    }
                ],
                "version": "1.0",
                "agencyID": "SDMX",
                "isFinal": true,
                "name": "Codelist for decimals",
                "names": {
                    "en": "Codelist for decimals"
                },
                "description": "This code list provides a list of values showing the number of decimal digits used in the data. This code list was released in 2009. More information about this code list and SDMX code lists in general (e.g. list of generic codes for expressing general concepts like \"Total\", \"Unknown\", etc.; syntaxes for the creation of further codes; general guidelines for the creation of SDMX code lists) can be found at this address: https://sdmx.org/?page_id=4345.",
                "descriptions": {
                    "en": "This code list provides a list of values showing the number of decimal digits used in the data. This code list was released in 2009. More information about this code list and SDMX code lists in general (e.g. list of generic codes for expressing general concepts like \"Total\", \"Unknown\", etc.; syntaxes for the creation of further codes; general guidelines for the creation of SDMX code lists) can be found at this address: https://sdmx.org/?page_id=4345."
                },
                "isPartial": false,
                "codes": [
                    {
                        "id": "0",
                        "name": "Zero",
                        "names": {
                            "en": "Zero"
                        },
                        "links": [
                            {
                                "rel": "self",
                                "urn": "urn:sdmx:org.sdmx.infomodel.codelist.Code=SDMX:CL_DECIMALS(1.0).0"
                            }
                        ]
                    },
                    {
                        "id": "1",
                        "name": "One",
                        "names": {
                            "en": "One"
                        },
                        "links": [
                            {
                                "rel": "self",
                                "urn": "urn:sdmx:org.sdmx.infomodel.codelist.Code=SDMX:CL_DECIMALS(1.0).1"
                            }
                        ]
                    },
                    {
                        "id": "2",
                        "name": "Two",
                        "names": {
                            "en": "Two"
                        },
                        "links": [
                            {
                                "rel": "self",
                                "urn": "urn:sdmx:org.sdmx.infomodel.codelist.Code=SDMX:CL_DECIMALS(1.0).2"
                            }
                        ]
                    },
                    {
                        "id": "3",
                        "name": "Three",
                        "names": {
                            "en": "Three"
                        },
                        "links": [
                            {
                                "rel": "self",
                                "urn": "urn:sdmx:org.sdmx.infomodel.codelist.Code=SDMX:CL_DECIMALS(1.0).3"
                            }
                        ]
                    }
                ]
            }
        ],
        "dataStructures": [
            {
                "id": "DSD_DATATYPE_GREGORIANDAY",
                "links": [
                    {
                        "rel": "self",
                        "urn": "urn:sdmx:org.sdmx.infomodel.datastructure.DataStructure=OECD:DSD_DATATYPE_GREGORIANDAY(1.0)"
                    }
                ],
                "version": "1.0",
                "agencyID": "OECD",
                "isFinal": true,
                "name": "DSD for tourism",
                "names": {
                    "en": "DSD for tourism"
                },
                "dataStructureComponents": {
                    "attributeList": {
                        "id": "AttributeDescriptor",
                        "links": [
                            {
                                "rel": "self",
                                "urn": "urn:sdmx:org.sdmx.infomodel.datastructure.AttributeDescriptor=OECD:DSD_DATATYPE_GREGORIANDAY(1.0).AttributeDescriptor"
                            }
                        ],
                        "attributes": [
                            {
                                "id": "PREFSCALE",
                                "links": [
                                    {
                                        "rel": "self",
                                        "urn": "urn:sdmx:org.sdmx.infomodel.datastructure.DataAttribute=OECD:DSD_DATATYPE_GREGORIANDAY(1.0).UNIT_MULT"
                                    }
                                ],
                                "conceptIdentity": "urn:sdmx:org.sdmx.infomodel.conceptscheme.Concept=OECD:CS_TOURISM(1.0).PREFSCALE",
                                "localRepresentation": {
                                    "enumeration": "urn:sdmx:org.sdmx.infomodel.codelist.Codelist=SDMX:CL_PREFSCALE(1.0)"
                                },
                                "assignmentStatus": "Conditional",
                                "attributeRelationship": {
                                    "primaryMeasure": "OBS_VALUE"
                                }
                            },
                            {
                                "id": "DECIMALS",
                                "links": [
                                    {
                                        "rel": "self",
                                        "urn": "urn:sdmx:org.sdmx.infomodel.datastructure.DataAttribute=OECD:DSD_DATATYPE_GREGORIANDAY(1.0).DECIMALS"
                                    }
                                ],
                                "conceptIdentity": "urn:sdmx:org.sdmx.infomodel.conceptscheme.Concept=OECD:CS_TOURISM(1.0).DECIMALS",
                                "localRepresentation": {
                                    "enumeration": "urn:sdmx:org.sdmx.infomodel.codelist.Codelist=SDMX:CL_DECIMALS(1.0)"
                                },
                                "assignmentStatus": "Conditional",
                                "attributeRelationship": {
                                    "primaryMeasure": "OBS_VALUE"
                                }
                            }
                        ]
                    },
                    "dimensionList": {
                        "id": "DimensionDescriptor",
                        "links": [
                            {
                                "rel": "self",
                                "urn": "urn:sdmx:org.sdmx.infomodel.datastructure.DimensionDescriptor=OECD:DSD_DATATYPE_GREGORIANDAY(1.0).DimensionDescriptor"
                            }
                        ],
                        "dimensions": [
                            {
                                "id": "DATATYPE",
                                "links": [
                                    {
                                        "rel": "self",
                                        "urn": "urn:sdmx:org.sdmx.infomodel.datastructure.Dimension=OECD:DSD_DATATYPE_GREGORIANDAY(1.0).DATATYPE"
                                    }
                                ],
                                "position": 0,
                                "type": "Dimension",
                                "conceptIdentity": "urn:sdmx:org.sdmx.infomodel.conceptscheme.Concept=OECD:CS_TOURISM(1.0).DATATYPE",
                                "localRepresentation": {
                                    "enumeration": "urn:sdmx:org.sdmx.infomodel.codelist.Codelist=OECD:CL_DATATYPE(1.0)"
                                }
                            },
                            {
                                "id": "VALUES",
                                "links": [
                                    {
                                        "rel": "self",
                                        "urn": "urn:sdmx:org.sdmx.infomodel.datastructure.Dimension=OECD:DSD_DATATYPE_GREGORIANDAY(1.0).VALUES"
                                    }
                                ],
                                "position": 1,
                                "type": "Dimension",
                                "conceptIdentity": "urn:sdmx:org.sdmx.infomodel.conceptscheme.Concept=OECD:CS_TOURISM(1.0).VALUES",
                                "localRepresentation": {
                                    "enumeration": "urn:sdmx:org.sdmx.infomodel.codelist.Codelist=OECD:CL_TOURISM_MEASURE(2.0)"
                                }
                            }
                        ],
                        "timeDimensions": []
                    },
                    "measureList": {
                        "id": "MeasureDescriptor",
                        "links": [
                            {
                                "rel": "self",
                                "urn": "urn:sdmx:org.sdmx.infomodel.datastructure.MeasureDescriptor=OECD:DSD_DATATYPE_GREGORIANDAY(1.0).MeasureDescriptor"
                            }
                        ],
                        "primaryMeasure": {
                            "id": "OBS_VALUE",
                            "links": [
                                {
                                    "rel": "self",
                                    "urn": "urn:sdmx:org.sdmx.infomodel.datastructure.PrimaryMeasure=OECD:DSD_DATATYPE_GREGORIANDAY(1.0).OBS_VALUE"
                                }
                            ],
                            "conceptIdentity": "urn:sdmx:org.sdmx.infomodel.conceptscheme.Concept=OECD:CS_TOURISM(1.0).OBS_VALUE",
                            "localRepresentation": {
                                "textFormat": {
                                    "textType": "String",
                                    "isSequence": false,
                                    "isMultiLingual": false
                                }
                            }
                        }
                    }
                }
            }
        ],
        "contentConstraints": [
            {
                "id": "CR_A_DF_TEST_GREGORIANDAY",
                "links": [
                    {
                        "rel": "self",
                        "urn": "urn:sdmx:org.sdmx.infomodel.registry.ContentConstraint=OECD:CR_A_DF_TEST_GREGORIANDAY(1.0)"
                    }
                ],
                "version": "1.0",
                "agencyID": "OECD",
                "isFinal": false,
                "name": "Availability (A) for DF_TEST_GREGORIANDAY",
                "names": {
                    "en": "Availability (A) for DF_TEST_GREGORIANDAY"
                },
                "annotations": [
                    {
                        "title": "A",
                        "type": "ReleaseVersion"
                    }
                ],
                "type": "Actual",
                "constraintAttachment": {
                    "dataflows": [
                        "urn:sdmx:org.sdmx.infomodel.datastructure.Dataflow=OECD:DF_TEST_GREGORIANDAY(1.0)"
                    ]
                },
                "cubeRegions": [
                    {
                        "isIncluded": true,
                        "keyValues": [
                            {
                                "id": "DATATYPE",
                                "values": [
                                    "BOOLEAN",
                                    "STRING",
                                    "MONTH",
                                    "MONTHDAY",
                                    "DAY",
                                    "NUMBER",
                                    "HTML"                                ]
                            },
                            {
                                "id": "VALUES",
                                "values": [
                                    "1",
                                    "2",
                                    "3",
                                    "4",
                                    "5",
                                    "6",
                                    "7",
                                    "8",
                                    "9",
                                    "10",
                                    "11"
                                ]
                            }
                        ]
                    }
                ]
            }
        ]
    },
    "meta": {
        "schema": "https://raw.githubusercontent.com/sdmx-twg/sdmx-json/develop/structure-message/tools/schemas/1.0/sdmx-json-structure-schema.json",
        "contentLanguages": [
            "en"
        ],
        "id": "IDREF5755",
        "prepared": "2023-06-26T12:30:20Z",
        "test": false,
        "sender": {
            "id": "Unknown"
        },
        "receiver": [
            {
                "id": "Unknown"
            }
        ]
    }
}