{
    "numFound": 2,
    "start": 0,
    "dataflows": [
        {
            "dimensions": [
                "Reference area",
                "Measure",
                "Unit of measure",
                "Age",
                "Sex",
                "Education level",
                "Category",
                "Time period"
            ],
            "name": "Core government results",
            "dataflowId": "DF_GOV_CORE_RESULTS",
            "version": "2.0",
            "agencyId": "OECD.GOV",
            "indexationDate": "2022-11-21T15:25:26.969Z",
            "id": "ds:qa:stable:DF_GOV_CORE_RESULTS",
            "datasourceId": "ds:qa:stable",
            "score": 0.0053163813
        },
        {
            "dimensions": [
                "Reference area",
                "Measure",
                "Time period"
            ],
            "name": "Open government data",
            "dataflowId": "DF_GOV_OG",
            "version": "2.0",
            "agencyId": "OECD.GOV",
            "indexationDate": "2022-11-21T15:25:27.568Z",
            "id": "ds:qa:stable:DF_GOV_OG",
            "datasourceId": "ds:qa:stable",
            "score": 0.0053163813
        }
    ],
    "facets": {
        "datasourceId": {
            "buckets": [
                {
                    "val": "ds:qa:stable",
                    "count": 2
                }
            ]
        },
        "Frequency": {
            "buckets": [
                {
                    "val": "0|Annual#A#",
                    "count": 2,
                    "order": 20
                }
            ]
        },
        "Topic": {
            "buckets": [
                {
                    "val": "0|Government#GOV#",
                    "count": 2,
                    "order": 8
                }
            ]
        },
        "Measure": {
            "buckets": [
                {
                    "val": "0|Average length of stay that patients spend in hospital, for all conditions#H_ALSH#",
                    "count": 1
                },
                {
                    "val": "0|Citizens having confidence in national government#CONFNG#",
                    "count": 1
                },
                {
                    "val": "0|Citizens satisfied with democracy#SAD#",
                    "count": 1
                },
                {
                    "val": "0|Citizens who have trust in parliament#TRP#",
                    "count": 1
                },
                {
                    "val": "0|Citizens who percept government corruption#PGC#",
                    "count": 1
                },
                {
                    "val": "0|Corporations that fill income tax on time#FR_CT#",
                    "count": 1
                },
                {
                    "val": "0|Household income held by units in the top 10 of the distribution#HI_TOP10#",
                    "count": 1
                },
                {
                    "val": "0|Household wealth held by units in the top 10 of the distribution#HW_TOP10#",
                    "count": 1
                },
                {
                    "val": "0|Income inequality: Disposable income (after tax and government transfers)#INEQ_G_ATAXTR#",
                    "count": 1
                },
                {
                    "val": "0|Income inequality: Primary income (before tax and government transfers)#INEQ_G_BTAXTR#",
                    "count": 1
                },
                {
                    "val": "0|Individuals economically vulnerable#PIEV#",
                    "count": 1
                },
                {
                    "val": "0|Individuals experiencing income- and asset-based poverty#PI_IA#",
                    "count": 1
                },
                {
                    "val": "0|Individuals experiencing income-based poverty#PI_I#",
                    "count": 1
                },
                {
                    "val": "0|Individuals who fill income tax on time#FR_PIT#",
                    "count": 1
                },
                {
                    "val": "0|Life expectancy#LEB_Y#",
                    "count": 1
                },
                {
                    "val": "0|Political eficacy: Citizens having a say in what government does#PE_SWGD#",
                    "count": 1
                },
                {
                    "val": "0|Public benefits of education#PBE#",
                    "count": 1
                },
                {
                    "val": "0|Public costs of education#PCE#",
                    "count": 1
                },
                {
                    "val": "0|Rule of law, Fundamental rights#RL_FR#",
                    "count": 1
                },
                {
                    "val": "0|Rule of law, Limited government powers#RL_LGP#",
                    "count": 1
                },
                {
                    "val": "0|Total health expenditure per capita#THE_POP#",
                    "count": 1
                },
                {
                    "val": "1|Part VII: Digital Government and Open government data#OG#|OURdata Index: Open, Useful, Reusable government data#OUR#",
                    "count": 1
                },
                {
                    "val": "2|Part VII: Digital Government and Open government data#OG#|OURdata Index: Open, Useful, Reusable government data#OUR#|Data accessibility (Pillar 2)#OUR_2#",
                    "count": 1
                },
                {
                    "val": "2|Part VII: Digital Government and Open government data#OG#|OURdata Index: Open, Useful, Reusable government data#OUR#|Data accessibility#OUR_DAC#",
                    "count": 1
                },
                {
                    "val": "2|Part VII: Digital Government and Open government data#OG#|OURdata Index: Open, Useful, Reusable government data#OUR#|Data availability (Pillar 1)#OUR_1#",
                    "count": 1
                },
                {
                    "val": "2|Part VII: Digital Government and Open government data#OG#|OURdata Index: Open, Useful, Reusable government data#OUR#|Data availability#OUR_DAV#",
                    "count": 1
                },
                {
                    "val": "2|Part VII: Digital Government and Open government data#OG#|OURdata Index: Open, Useful, Reusable government data#OUR#|Government support for data reuse (Pillar 3)#OUR_3#",
                    "count": 1
                },
                {
                    "val": "2|Part VII: Digital Government and Open government data#OG#|OURdata Index: Open, Useful, Reusable government data#OUR#|Government support for data reuse#OUR_GSR#",
                    "count": 1
                },
                {
                    "val": "3|Part VII: Digital Government and Open government data#OG#|OURdata Index: Open, Useful, Reusable government data#OUR#|Data accessibility (Pillar 2)#OUR_2#|Content of the unrestricted access to data policy#OUR_2_CUADP#",
                    "count": 1
                },
                {
                    "val": "3|Part VII: Digital Government and Open government data#OG#|OURdata Index: Open, Useful, Reusable government data#OUR#|Data accessibility (Pillar 2)#OUR_2#|Implementation#OUR_2_I#",
                    "count": 1
                },
                {
                    "val": "3|Part VII: Digital Government and Open government data#OG#|OURdata Index: Open, Useful, Reusable government data#OUR#|Data accessibility (Pillar 2)#OUR_2#|Stakeholder engagement for data quality and completeness#OUR_2_SEDQC#",
                    "count": 1
                },
                {
                    "val": "3|Part VII: Digital Government and Open government data#OG#|OURdata Index: Open, Useful, Reusable government data#OUR#|Data availability (Pillar 1)#OUR_1#|Content of the open by default policy#OUR_1_CODP#",
                    "count": 1
                },
                {
                    "val": "3|Part VII: Digital Government and Open government data#OG#|OURdata Index: Open, Useful, Reusable government data#OUR#|Data availability (Pillar 1)#OUR_1#|Implementation#OUR_1_I#",
                    "count": 1
                },
                {
                    "val": "3|Part VII: Digital Government and Open government data#OG#|OURdata Index: Open, Useful, Reusable government data#OUR#|Data availability (Pillar 1)#OUR_1#|Stakeholder engagement for data release#OUR_1_SEDR#",
                    "count": 1
                },
                {
                    "val": "3|Part VII: Digital Government and Open government data#OG#|OURdata Index: Open, Useful, Reusable government data#OUR#|Government support for data reuse (Pillar 3)#OUR_3#|Data literacy programmes in government#OUR_3_DLP#",
                    "count": 1
                },
                {
                    "val": "3|Part VII: Digital Government and Open government data#OG#|OURdata Index: Open, Useful, Reusable government data#OUR#|Government support for data reuse (Pillar 3)#OUR_3#|Data promotion initiatives and partnerships#OUR_3_DPIP#",
                    "count": 1
                },
                {
                    "val": "3|Part VII: Digital Government and Open government data#OG#|OURdata Index: Open, Useful, Reusable government data#OUR#|Government support for data reuse (Pillar 3)#OUR_3#|Monitoring impact#OUR_3_MI#",
                    "count": 1
                }
            ]
        },
        "Reference area": {
            "buckets": [
                {
                    "val": "0|Australia#AU#",
                    "count": 2
                },
                {
                    "val": "0|Austria#AT#",
                    "count": 2
                },
                {
                    "val": "0|Belgium#BE#",
                    "count": 2
                },
                {
                    "val": "0|Canada#CA#",
                    "count": 2
                },
                {
                    "val": "0|Chile#CL#",
                    "count": 2
                },
                {
                    "val": "0|Colombia#CO#",
                    "count": 2
                },
                {
                    "val": "0|Czech Republic#CZ#",
                    "count": 2
                },
                {
                    "val": "0|Denmark#DK#",
                    "count": 2
                },
                {
                    "val": "0|Estonia#EE#",
                    "count": 2
                },
                {
                    "val": "0|Finland#FI#",
                    "count": 2
                },
                {
                    "val": "0|France#FR#",
                    "count": 2
                },
                {
                    "val": "0|Germany#DE#",
                    "count": 2
                },
                {
                    "val": "0|Greece#GR#",
                    "count": 2
                },
                {
                    "val": "0|Ireland#IE#",
                    "count": 2
                },
                {
                    "val": "0|Israel#IL#",
                    "count": 2
                },
                {
                    "val": "0|Italy#IT#",
                    "count": 2
                },
                {
                    "val": "0|Japan#JP#",
                    "count": 2
                },
                {
                    "val": "0|Korea, Republic of#KR#",
                    "count": 2
                },
                {
                    "val": "0|Latvia#LV#",
                    "count": 2
                },
                {
                    "val": "0|Lithuania#LT#",
                    "count": 2
                },
                {
                    "val": "0|Luxembourg#LU#",
                    "count": 2
                },
                {
                    "val": "0|Mexico#MX#",
                    "count": 2
                },
                {
                    "val": "0|Netherlands#NL#",
                    "count": 2
                },
                {
                    "val": "0|New Zealand#NZ#",
                    "count": 2
                },
                {
                    "val": "0|Norway#NO#",
                    "count": 2
                },
                {
                    "val": "0|OECD - Average#OECDAVG#",
                    "count": 2
                },
                {
                    "val": "0|Poland#PL#",
                    "count": 2
                },
                {
                    "val": "0|Portugal#PT#",
                    "count": 2
                },
                {
                    "val": "0|Slovakia#SK#",
                    "count": 2
                },
                {
                    "val": "0|Slovenia#SI#",
                    "count": 2
                },
                {
                    "val": "0|Spain#ES#",
                    "count": 2
                },
                {
                    "val": "0|Sweden#SE#",
                    "count": 2
                },
                {
                    "val": "0|Switzerland#CH#",
                    "count": 2
                },
                {
                    "val": "0|Turkey#TR#",
                    "count": 2
                },
                {
                    "val": "0|United Kingdom of Great Britain and Northern Ireland#GB#",
                    "count": 2
                },
                {
                    "val": "0|United States of America#US#",
                    "count": 2
                },
                {
                    "val": "0|Brazil#BR#",
                    "count": 1
                },
                {
                    "val": "0|China#CN#",
                    "count": 1
                },
                {
                    "val": "0|Costa Rica#CR#",
                    "count": 1
                },
                {
                    "val": "0|Hungary#HU#",
                    "count": 1
                },
                {
                    "val": "0|Iceland#IS#",
                    "count": 1
                },
                {
                    "val": "0|India#IN#",
                    "count": 1
                },
                {
                    "val": "0|Indonesia#ID#",
                    "count": 1
                },
                {
                    "val": "0|Russian Federation#RU#",
                    "count": 1
                },
                {
                    "val": "0|South Africa#ZA#",
                    "count": 1
                }
            ]
        },
        "Unit of measure": {
            "buckets": [
                {
                    "val": "0|Index#INDEX#",
                    "count": 2
                },
                {
                    "val": "0|Days#DAYS#",
                    "count": 1
                },
                {
                    "val": "0|GINI coefficient#GINI#",
                    "count": 1
                },
                {
                    "val": "0|Percentage of population#PCT_POP#",
                    "count": 1
                },
                {
                    "val": "0|Percentage of total household income#PCT_HH_INCOME#",
                    "count": 1
                },
                {
                    "val": "0|Percentage of total household wealth#PCT_HH_WEALTH#",
                    "count": 1
                },
                {
                    "val": "0|US Dollars#USD#",
                    "count": 1
                },
                {
                    "val": "0|Years#YEARS#",
                    "count": 1
                }
            ]
        },
        "Age": {
            "buckets": [
                {
                    "val": "0|50 years and older#Y_GE50#",
                    "count": 1
                },
                {
                    "val": "0|From 15 to 29 years#Y15T29#",
                    "count": 1
                },
                {
                    "val": "0|From 30 to 49 years#Y30T49#",
                    "count": 1
                },
                {
                    "val": "0|Total#_T#",
                    "count": 1,
                    "order": 30
                }
            ]
        },
        "Category": {
            "buckets": [
                {
                    "val": "0|Cost-effectiveness of public policies#CEP#",
                    "count": 1
                },
                {
                    "val": "0|Perception of government responsiveness: external political efficacy#PGR#",
                    "count": 1
                },
                {
                    "val": "0|Public sector efficiency#PSE#",
                    "count": 1
                },
                {
                    "val": "0|Redistribution of income and wealth#RIW#",
                    "count": 1
                },
                {
                    "val": "0|Rule of law#ROL#",
                    "count": 1
                },
                {
                    "val": "0|Trust in government#TG#",
                    "count": 1
                }
            ]
        },
        "Sex": {
            "buckets": [
                {
                    "val": "0|Female#F#",
                    "count": 1,
                    "order": 20
                },
                {
                    "val": "0|Male#M#",
                    "count": 1,
                    "order": 10
                },
                {
                    "val": "0|Total#_T#",
                    "count": 1,
                    "order": 30
                }
            ]
        },
        "Education level": {
            "buckets": [
                {
                    "val": "0|Tertiary education#ISCED11_5T8#",
                    "count": 1,
                    "order": 21
                },
                {
                    "val": "0|Total#_T#",
                    "count": 1,
                    "order": 30
                }
            ]
        }
    },
    "highlighting": {}
}