{
    "numFound": 1,
    "start": 0,
    "dataflows": [
        {
            "dimensions": [
                "Reference area",
                "Activity",
                "Time period"
            ],
            "name": "Enterprises and employment in tourism",
            "description": "Data on enterprises and employment in tourism industry.",
            "dataflowId": "ENT_EMP@TOURISM_KEY",
            "version": "1.0",
            "agencyId": "OECD.CFE",
            "indexationDate": "2022-11-21T15:25:16.324Z",
            "id": "ds-demo-release:ENT_EMP@TOURISM_KEY",
            "datasourceId": "ds-demo-release",
            "score": 5.0053163
        }
    ],
    "facets": {
        "datasourceId": {
            "buckets": [
                {
                    "val": "ds-demo-release",
                    "count": 1
                }
            ]
        },
        "Topic": {
            "buckets": [
                {
                    "val": "0|Economy#ECO#",
                    "count": 1,
                    "order": 3
                },
                {
                    "val": "1|Economy#ECO#|Corporate sector#ECO_COR#",
                    "count": 1,
                    "order": 1
                }
            ]
        },
        "Measure": {
            "buckets": [
                {
                    "val": "0|Enterprises#ENT#",
                    "count": 1
                }
            ]
        },
        "Frequency of observation": {
            "buckets": [
                {
                    "val": "0|Annual#A#",
                    "count": 1,
                    "order": 20
                }
            ]
        },
        "Reference area": {
            "buckets": [
                {
                    "val": "0|Argentina#AR#",
                    "count": 1
                },
                {
                    "val": "0|Australia#AU#",
                    "count": 1
                },
                {
                    "val": "0|Austria#AT#",
                    "count": 1
                },
                {
                    "val": "0|Belgium#BE#",
                    "count": 1
                },
                {
                    "val": "0|Brazil#BR#",
                    "count": 1
                },
                {
                    "val": "0|Bulgaria#BG#",
                    "count": 1
                },
                {
                    "val": "0|Canada#CA#",
                    "count": 1
                },
                {
                    "val": "0|Chile#CL#",
                    "count": 1
                },
                {
                    "val": "0|China#CN#",
                    "count": 1
                },
                {
                    "val": "0|Colombia#CO#",
                    "count": 1
                },
                {
                    "val": "0|Costa Rica#CR#",
                    "count": 1
                },
                {
                    "val": "0|Croatia#HR#",
                    "count": 1
                },
                {
                    "val": "0|Czechia#CZ#",
                    "count": 1
                },
                {
                    "val": "0|Denmark#DK#",
                    "count": 1
                },
                {
                    "val": "0|Egypt#EG#",
                    "count": 1
                },
                {
                    "val": "0|Estonia#EE#",
                    "count": 1
                },
                {
                    "val": "0|Finland#FI#",
                    "count": 1
                },
                {
                    "val": "0|France#FR#",
                    "count": 1
                },
                {
                    "val": "0|Germany#DE#",
                    "count": 1
                },
                {
                    "val": "0|Greece#GR#",
                    "count": 1
                },
                {
                    "val": "0|Hungary#HU#",
                    "count": 1
                },
                {
                    "val": "0|Iceland#IS#",
                    "count": 1
                },
                {
                    "val": "0|India#IN#",
                    "count": 1
                },
                {
                    "val": "0|Indonesia#ID#",
                    "count": 1
                },
                {
                    "val": "0|Ireland#IE#",
                    "count": 1
                },
                {
                    "val": "0|Israel#IL#",
                    "count": 1
                },
                {
                    "val": "0|Italy#IT#",
                    "count": 1
                },
                {
                    "val": "0|Japan#JP#",
                    "count": 1
                },
                {
                    "val": "0|Kazakhstan#KZ#",
                    "count": 1
                },
                {
                    "val": "0|Korea, Republic of#KR#",
                    "count": 1
                },
                {
                    "val": "0|Latvia#LV#",
                    "count": 1
                },
                {
                    "val": "0|Lithuania#LT#",
                    "count": 1
                },
                {
                    "val": "0|Luxembourg#LU#",
                    "count": 1
                },
                {
                    "val": "0|Malta#MT#",
                    "count": 1
                },
                {
                    "val": "0|Mexico#MX#",
                    "count": 1
                },
                {
                    "val": "0|Morocco#MA#",
                    "count": 1
                },
                {
                    "val": "0|Netherlands#NL#",
                    "count": 1
                },
                {
                    "val": "0|New Zealand#NZ#",
                    "count": 1
                },
                {
                    "val": "0|Norway#NO#",
                    "count": 1
                },
                {
                    "val": "0|Peru#PE#",
                    "count": 1
                },
                {
                    "val": "0|Philippines#PH#",
                    "count": 1
                },
                {
                    "val": "0|Poland#PL#",
                    "count": 1
                },
                {
                    "val": "0|Portugal#PT#",
                    "count": 1
                },
                {
                    "val": "0|Romania#RO#",
                    "count": 1
                },
                {
                    "val": "0|Russian Federation#RU#",
                    "count": 1
                },
                {
                    "val": "0|Serbia#RS#",
                    "count": 1
                },
                {
                    "val": "0|Slovakia#SK#",
                    "count": 1
                },
                {
                    "val": "0|Slovenia#SI#",
                    "count": 1
                },
                {
                    "val": "0|South Africa#ZA#",
                    "count": 1
                },
                {
                    "val": "0|Spain#ES#",
                    "count": 1
                },
                {
                    "val": "0|Sweden#SE#",
                    "count": 1
                },
                {
                    "val": "0|Switzerland#CH#",
                    "count": 1
                },
                {
                    "val": "0|Turkey#TR#",
                    "count": 1
                },
                {
                    "val": "0|United Kingdom of Great Britain and Northern Ireland#GB#",
                    "count": 1
                },
                {
                    "val": "0|United States of America#US#",
                    "count": 1
                },
                {
                    "val": "1|Belgium#BE#|Flanders#BE2#",
                    "count": 1
                },
                {
                    "val": "1|Belgium#BE#|Region of Brussels-Capital#BE1#",
                    "count": 1
                },
                {
                    "val": "1|Belgium#BE#|Wallonia#BE3#",
                    "count": 1
                }
            ]
        },
        "Unit of measure": {
            "buckets": [
                {
                    "val": "0|Number#NUMBER#",
                    "count": 1
                }
            ]
        },
        "Activity": {
            "buckets": [
                {
                    "val": "0|Tourism#AGG_TOUR#",
                    "count": 1
                },
                {
                    "val": "1|Tourism#AGG_TOUR#|Other industries#_O#",
                    "count": 1
                },
                {
                    "val": "1|Tourism#AGG_TOUR#|Tourism industries#IND#",
                    "count": 1
                },
                {
                    "val": "2|Tourism#AGG_TOUR#|Tourism industries#IND#|Accommodation services for visitors#ACCOM_SVCS#",
                    "count": 1
                },
                {
                    "val": "2|Tourism#AGG_TOUR#|Tourism industries#IND#|Cultural industry#CULTURE#",
                    "count": 1
                },
                {
                    "val": "2|Tourism#AGG_TOUR#|Tourism industries#IND#|Food and beverage serving industries#FOOD_BEV#",
                    "count": 1
                },
                {
                    "val": "2|Tourism#AGG_TOUR#|Tourism industries#IND#|Other country-specific tourism industries#OTHER_COUNTRY_SPEC#",
                    "count": 1
                },
                {
                    "val": "2|Tourism#AGG_TOUR#|Tourism industries#IND#|Passenger transport supporting services#SUPPORT_SVC#",
                    "count": 1
                },
                {
                    "val": "2|Tourism#AGG_TOUR#|Tourism industries#IND#|Passenger transport#TRANSPORT#",
                    "count": 1
                },
                {
                    "val": "2|Tourism#AGG_TOUR#|Tourism industries#IND#|Retail trade of country-specific tourism charasteristic goods#RETAIL#",
                    "count": 1
                },
                {
                    "val": "2|Tourism#AGG_TOUR#|Tourism industries#IND#|Sports and recreation industry#SPORTS_REC#",
                    "count": 1
                },
                {
                    "val": "2|Tourism#AGG_TOUR#|Tourism industries#IND#|Transport equipment rental#EQUIP_RENTAL#",
                    "count": 1
                },
                {
                    "val": "2|Tourism#AGG_TOUR#|Tourism industries#IND#|Travel agencies and other reservation services industry#TRVL_AGENT#",
                    "count": 1
                },
                {
                    "val": "3|Tourism#AGG_TOUR#|Tourism industries#IND#|Accommodation services for visitors#ACCOM_SVCS#|Hotels and similar establishments#ACCOM_SVCS_HOTELS#",
                    "count": 1
                },
                {
                    "val": "3|Tourism#AGG_TOUR#|Tourism industries#IND#|Passenger transport#TRANSPORT#|Air passenger transport#TRANSPORT_AIR#",
                    "count": 1
                },
                {
                    "val": "3|Tourism#AGG_TOUR#|Tourism industries#IND#|Passenger transport#TRANSPORT#|Railways passenger transport#TRANSPORT_RAIL#",
                    "count": 1
                },
                {
                    "val": "3|Tourism#AGG_TOUR#|Tourism industries#IND#|Passenger transport#TRANSPORT#|Road passenger transport#TRANSPORT_ROAD#",
                    "count": 1
                },
                {
                    "val": "3|Tourism#AGG_TOUR#|Tourism industries#IND#|Passenger transport#TRANSPORT#|Water passenger transport#TRANSPORT_WATER#",
                    "count": 1
                }
            ]
        }
    },
    "highlighting": {
        "ds-demo-release:ENT_EMP@TOURISM_KEY": {
            "dataflowId": [
                "ENT_EMP@<mark>TOURISM_KEY</mark>"
            ],
            "description": [
                "Data on enterprises and employment in <mark>tourism</mark> industry."
            ],
            "name": [
                "Enterprises and employment in <mark>tourism</mark>"
            ],
            "Activity": [
                "0|<mark>Tourism</mark>#AGG_TOUR#"
            ]
        }
    }
}