{
    "numFound": 5,
    "start": 0,
    "dataflows": [
        {
            "dimensions": [
                "Frequency",
                "Adjustment indicator",
                "Reference area",
                "Counterpart area",
                "Reporting institutional sector",
                "Accounting Entry",
                "Stocks",
                "Instrument and Assets Classification",
                "Activity classification",
                "Expenditure (COFOG, COICOP, COPP or COPNI)",
                "Unit",
                "Prices",
                "Transformation",
                "Table identifier",
                "Time period"
            ],
            "name": "NAMAIN_ALL - UoM 5",
            "dataflowId": "NAMAIN_ALL",
            "version": "3.0",
            "agencyId": "OECD.SDD",
            "indexationDate": "2022-11-29T12:23:20.962Z",
            "id": "ds:staging:SIS-CC-stable:NAMAIN_ALL",
            "datasourceId": "ds:staging:SIS-CC-stable",
            "score": 0.004759682
        },
        {
            "dimensions": [
                "Frequency",
                "Adjustment indicator",
                "Reference area",
                "Counterpart area",
                "Reporting institutional sector",
                "Accounting Entry",
                "Stocks",
                "Instrument and Assets Classification",
                "Activity classification",
                "Expenditure (COFOG, COICOP, COPP or COPNI)",
                "Unit",
                "Prices",
                "Transformation",
                "Time period"
            ],
            "name": "Table 0102 - Annual GDP identity from the expenditure side (UoM case 3 without UNIT_MULT)",
            "dataflowId": "NAMAIN_T0102_A",
            "version": "3.0",
            "agencyId": "OECD.SDD",
            "indexationDate": "2022-11-29T12:24:15.468Z",
            "id": "ds:qa:stable:NAMAIN_T0102_A",
            "datasourceId": "ds:qa:stable",
            "score": 0.004759682
        },
        {
            "dimensions": [
                "Frequency",
                "Adjustment indicator",
                "Reference area",
                "Counterpart area",
                "Reporting institutional sector",
                "Accounting Entry",
                "Stocks",
                "Instrument and Assets Classification",
                "Activity classification",
                "Expenditure (COFOG, COICOP, COPP or COPNI)",
                "Unit",
                "Prices",
                "Transformation",
                "Time period"
            ],
            "name": "Table 0102 - Annual GDP identity from the expenditure side (UoM case 3 without UNIT_MULT)",
            "dataflowId": "NAMAIN_T0102_A",
            "version": "3.0",
            "agencyId": "OECD.SDD",
            "indexationDate": "2022-11-29T12:23:25.351Z",
            "id": "ds:staging:SIS-CC-stable:NAMAIN_T0102_A",
            "datasourceId": "ds:staging:SIS-CC-stable",
            "score": 0.004759682
        },
        {
            "dimensions": [
                "Frequency",
                "Adjustment indicator",
                "Reference area",
                "Counterpart area",
                "Reporting institutional sector",
                "Accounting Entry",
                "Stocks",
                "Instrument and Assets Classification",
                "Activity classification",
                "Expenditure (COFOG, COICOP, COPP or COPNI)",
                "Unit",
                "Prices",
                "Transformation",
                "Time period"
            ],
            "name": "Table 0102 - Quarterly GDP identity from the expenditure side (UoM Case 5)",
            "dataflowId": "NAMAIN_T0102_Q",
            "version": "3.0",
            "agencyId": "OECD.SDD",
            "indexationDate": "2022-11-29T12:23:27.631Z",
            "id": "ds:staging:SIS-CC-stable:NAMAIN_T0102_Q",
            "datasourceId": "ds:staging:SIS-CC-stable",
            "score": 0.004759682
        },
        {
            "dimensions": [
                "Frequency",
                "Adjustment indicator",
                "Reference area",
                "Counterpart area",
                "Reporting institutional sector",
                "Accounting Entry",
                "Stocks",
                "Instrument and Assets Classification",
                "Activity classification",
                "Expenditure (COFOG, COICOP, COPP or COPNI)",
                "Unit",
                "Prices",
                "Transformation",
                "Table identifier",
                "Time period"
            ],
            "name": "Table 0107 - Quarterly Disposable income, saving, net lending / borrowing (UoM Case 3)",
            "dataflowId": "NAMAIN_T0107_Q",
            "version": "3.0",
            "agencyId": "OECD.SDD",
            "indexationDate": "2022-11-29T12:24:17.767Z",
            "id": "ds:qa:stable:NAMAIN_T0107_Q",
            "datasourceId": "ds:qa:stable",
            "score": 0.004759682
        }
    ],
    "facets": {
        "datasourceId": {
            "buckets": [
                {
                    "val": "ds:staging:SIS-CC-stable",
                    "count": 3
                },
                {
                    "val": "ds:qa:stable",
                    "count": 2
                }
            ]
        },
        "Frequency": {
            "buckets": [
                {
                    "val": "0|Annual#A#",
                    "count": 5,
                    "order": 20
                },
                {
                    "val": "0|Quarterly#Q#",
                    "count": 5
                }
            ]
        },
        "Topic": {
            "buckets": [
                {
                    "val": "0|Economy#ECO#",
                    "count": 5,
                    "order": 3
                }
            ]
        },
        "Reference area": {
            "buckets": [
                {
                    "val": "0|Australia#AU#",
                    "count": 5
                },
                {
                    "val": "0|Belgium#BE#",
                    "count": 5
                },
                {
                    "val": "0|France#FR#",
                    "count": 5
                },
                {
                    "val": "0|Germany#DE#",
                    "count": 5
                },
                {
                    "val": "0|United States#US#",
                    "count": 5
                }
            ]
        },
        "Transformation": {
            "buckets": [
                {
                    "val": "0|Annual levels#LA#",
                    "count": 5
                },
                {
                    "val": "0|Growth rate , flow over stock over 4 periods#F4#",
                    "count": 5
                },
                {
                    "val": "0|Growth rate, flow over stock, period on period#F1#",
                    "count": 5
                },
                {
                    "val": "0|Non transformed data#N#",
                    "count": 5
                }
            ]
        },
        "Activity classification": {
            "buckets": [
                {
                    "val": "0|Not applicable#_Z#",
                    "count": 5,
                    "order": 1000
                },
                {
                    "val": "0|Total - All activities#_T#",
                    "count": 5,
                    "order": 3
                },
                {
                    "val": "0|Agriculture, forestry and fishing#A#",
                    "count": 2,
                    "order": 4
                },
                {
                    "val": "0|Arts, entertainment and recreation; other service activities; activities of household and extra-territorial organizations and bodies#RTU#",
                    "count": 2,
                    "order": 179
                },
                {
                    "val": "0|Construction#F#",
                    "count": 2,
                    "order": 73
                },
                {
                    "val": "0|Financial and insurance activities#K#",
                    "count": 2,
                    "order": 114
                },
                {
                    "val": "0|Industry (except construction)#BTE#",
                    "count": 2,
                    "order": 18
                },
                {
                    "val": "0|Information and communication#J#",
                    "count": 2,
                    "order": 102
                },
                {
                    "val": "0|Professional, scientific and technical activities; administrative and support service activities#M_N#",
                    "count": 2,
                    "order": 127
                },
                {
                    "val": "0|Public administration, defence, education, human health and social work activities#OTQ#",
                    "count": 2,
                    "order": 158
                },
                {
                    "val": "0|Real estate activities#L#",
                    "count": 2,
                    "order": 123
                },
                {
                    "val": "0|Wholesale and retail trade, transport, accommodation and food service activities#GTI#",
                    "count": 2,
                    "order": 83
                },
                {
                    "val": "1|Industry (except construction)#BTE#|Manufacturing#C#",
                    "count": 2,
                    "order": 23
                }
            ]
        },
        "Accounting Entry": {
            "buckets": [
                {
                    "val": "0|Balance (Credits minus Debits)#B#",
                    "count": 5
                },
                {
                    "val": "0|Credit (Resources)#C#",
                    "count": 5
                },
                {
                    "val": "0|Debit (Uses)#D#",
                    "count": 5
                },
                {
                    "val": "0|Not applicable#_Z#",
                    "count": 5,
                    "order": 1000
                }
            ]
        },
        "Counterpart area": {
            "buckets": [
                {
                    "val": "0|Domestic (home or reference area)#W2#",
                    "count": 5
                },
                {
                    "val": "0|Not applicable#_Z#",
                    "count": 5,
                    "order": 1000
                },
                {
                    "val": "0|Rest of the World#W1#",
                    "count": 5
                },
                {
                    "val": "0|United States#US#",
                    "count": 5
                },
                {
                    "val": "0|World (all areas, including reference area, including IO)#W0#",
                    "count": 5
                }
            ]
        },
        "Prices": {
            "buckets": [
                {
                    "val": "0|Chain linked volume (rebased)#LR#",
                    "count": 5,
                    "order": 6
                },
                {
                    "val": "0|Chain linked volume#L#",
                    "count": 5,
                    "order": 5
                },
                {
                    "val": "0|Current prices#V#",
                    "count": 5,
                    "order": 1
                },
                {
                    "val": "0|Deflator (index)#D#",
                    "count": 5
                },
                {
                    "val": "0|Deflator (rebased)#DR#",
                    "count": 5,
                    "order": 10
                },
                {
                    "val": "0|Not applicable#_Z#",
                    "count": 5,
                    "order": 1000
                }
            ]
        },
        "Table identifier": {
            "buckets": [
                {
                    "val": "0|Table 0102 - GDP identity from the expenditure side#T0102#",
                    "count": 5
                },
                {
                    "val": "0|Table 0101 - Gross value added at basic prices and gross domestic product at market prices#T0101#",
                    "count": 2
                },
                {
                    "val": "0|Table 0103 - GDP identity from the income side#T0103#",
                    "count": 2
                },
                {
                    "val": "0|Table 0107 - Disposable income, saving, net lending / borrowing#T0107#",
                    "count": 2
                },
                {
                    "val": "0|Table 0110 - Population and employment#T0110#",
                    "count": 1
                },
                {
                    "val": "0|Table 0111 - Employment by industry#T0111#",
                    "count": 1
                }
            ]
        },
        "Stocks": {
            "buckets": [
                {
                    "val": "0|Acquisitions less disposals of valuables#P53#",
                    "count": 5
                },
                {
                    "val": "0|Actual individual consumption#P41#",
                    "count": 5
                },
                {
                    "val": "0|Changes in inventories and acquisition less disposals of valuables#P5M#",
                    "count": 5
                },
                {
                    "val": "0|Changes in inventories#P52#",
                    "count": 5
                },
                {
                    "val": "0|Collective consumption expenditure#P32#",
                    "count": 5
                },
                {
                    "val": "0|Exports of goods and services#P6#",
                    "count": 5
                },
                {
                    "val": "0|Exports of goods#P61#",
                    "count": 5
                },
                {
                    "val": "0|Exports of services#P62#",
                    "count": 5
                },
                {
                    "val": "0|External balance of goods and services#B11#",
                    "count": 5
                },
                {
                    "val": "0|Final consumption expenditure#P3#",
                    "count": 5
                },
                {
                    "val": "0|Gross capital formation#P5#",
                    "count": 5
                },
                {
                    "val": "0|Gross domestic product at market prices#B1GQ#",
                    "count": 5,
                    "order": 10
                },
                {
                    "val": "0|Gross fixed capital formation#P51G#",
                    "count": 5
                },
                {
                    "val": "0|Imports of goods and services#P7#",
                    "count": 5
                },
                {
                    "val": "0|Imports of goods#P71#",
                    "count": 5
                },
                {
                    "val": "0|Imports of services#P72#",
                    "count": 5
                },
                {
                    "val": "0|Individual consumption expenditure#P31#",
                    "count": 5
                },
                {
                    "val": "0|Statistical discrepancy (expenditure approach)#YA0#",
                    "count": 5
                },
                {
                    "val": "0|Acquisitions less disposals of non-produced assets#NP#",
                    "count": 2
                },
                {
                    "val": "0|Balance of primary incomes#B5G#",
                    "count": 2
                },
                {
                    "val": "0|Balance of primary incomes, net / National income, net#B5N#",
                    "count": 2
                },
                {
                    "val": "0|Capital transfers#D9#",
                    "count": 2
                },
                {
                    "val": "0|Compensation of employees#D1#",
                    "count": 2
                },
                {
                    "val": "0|Consumption of fixed capital#P51C#",
                    "count": 2
                },
                {
                    "val": "0|Disposable income, net#B6N#",
                    "count": 2
                },
                {
                    "val": "0|Employers' social contributions#D12#",
                    "count": 2
                },
                {
                    "val": "0|Net lending(+) / net borrowing (-)#B9#",
                    "count": 2
                },
                {
                    "val": "0|Operating surplus and mixed income, gross#B2A3G#",
                    "count": 2
                },
                {
                    "val": "0|Primary income#IN1#",
                    "count": 2
                },
                {
                    "val": "0|Saving, net#B8N#",
                    "count": 2
                },
                {
                    "val": "0|Secondary income: current transfers#IN21#",
                    "count": 2
                },
                {
                    "val": "0|Statistical discrepancy (income approach)#YA2#",
                    "count": 2
                },
                {
                    "val": "0|Subsidies#D3#",
                    "count": 2
                },
                {
                    "val": "0|Taxes on production and imports less subsidies#D2X3#",
                    "count": 2
                },
                {
                    "val": "0|Taxes on production and imports#D2#",
                    "count": 2
                },
                {
                    "val": "0|Wages and salaries#D11#",
                    "count": 2
                },
                {
                    "val": "1|Gross domestic product at market prices#B1GQ#|Statistical discrepancy (production approach)#YA1#",
                    "count": 2,
                    "order": 6
                },
                {
                    "val": "1|Gross domestic product at market prices#B1GQ#|Taxes less subsidies on products#D21X31#",
                    "count": 2,
                    "order": 3
                },
                {
                    "val": "1|Gross domestic product at market prices#B1GQ#|Value added, gross#B1G#",
                    "count": 2,
                    "order": 2
                },
                {
                    "val": "2|Gross domestic product at market prices#B1GQ#|Taxes less subsidies on products#D21X31#|Subsidies on products#D31#",
                    "count": 2,
                    "order": 5
                },
                {
                    "val": "2|Gross domestic product at market prices#B1GQ#|Taxes less subsidies on products#D21X31#|Taxes on products#D21#",
                    "count": 2,
                    "order": 4
                },
                {
                    "val": "0|Employees#SAL#",
                    "count": 1
                },
                {
                    "val": "0|Self employed#SELF#",
                    "count": 1
                },
                {
                    "val": "0|Total employment#EMP#",
                    "count": 1
                },
                {
                    "val": "0|Total population#POP#",
                    "count": 1
                }
            ]
        },
        "Instrument and Assets Classification": {
            "buckets": [
                {
                    "val": "0|Cultivated biological resources (gross)#N115G#",
                    "count": 5
                },
                {
                    "val": "0|Currency#F21#",
                    "count": 5
                },
                {
                    "val": "0|Dwellings (gross)#N111G#",
                    "count": 5
                },
                {
                    "val": "0|Fixed assets by type of asset (gross)#N11G#",
                    "count": 5
                },
                {
                    "val": "0|ICT equipment (gross)#N1132G#",
                    "count": 5
                },
                {
                    "val": "0|Intellectual property products (gross)#N117G#",
                    "count": 5
                },
                {
                    "val": "0|Inventories by type of inventory (gross)#N12G#",
                    "count": 5
                },
                {
                    "val": "0|Inventories by type of inventory and valuables (gross)#N1MG#",
                    "count": 5
                },
                {
                    "val": "0|Machinery and equipment and weapons systems (gross)#N11MG#",
                    "count": 5
                },
                {
                    "val": "0|Not applicable#_Z#",
                    "count": 5,
                    "order": 1000
                },
                {
                    "val": "0|Other buildings and structures (gross)#N112G#",
                    "count": 5
                },
                {
                    "val": "0|Other machinery and equipment and weapons systems (gross)#N11OG#",
                    "count": 5
                },
                {
                    "val": "0|Produced non-financial assets (gross)#N1G#",
                    "count": 5
                },
                {
                    "val": "0|Transport equipment (gross)#N1131G#",
                    "count": 5
                },
                {
                    "val": "0|Valuables (gross)#N13G#",
                    "count": 5
                }
            ]
        },
        "Unit": {
            "buckets": [
                {
                    "val": "0|National currency#XDC#",
                    "count": 5
                },
                {
                    "val": "0|Not applicable#_Z#",
                    "count": 5,
                    "order": 1000
                },
                {
                    "val": "0|Per capita, US $, PPP converted#PU_R_POP#",
                    "count": 5
                },
                {
                    "val": "0|Purchasing power parities: currency of area per currency of counterpart area#XXPP#",
                    "count": 5
                },
                {
                    "val": "0|US dollar, converted using purchasing power parities#PU#",
                    "count": 5
                },
                {
                    "val": "0|Persons#PS#",
                    "count": 1
                }
            ]
        },
        "Counterpart institutional sector": {
            "buckets": [
                {
                    "val": "0|Total economy#S1#",
                    "count": 5,
                    "order": 10
                }
            ]
        },
        "Expenditure (COFOG, COICOP, COPP or COPNI)": {
            "buckets": [
                {
                    "val": "0|Not applicable#_Z#",
                    "count": 5,
                    "order": 1000
                },
                {
                    "val": "0|Total#_T#",
                    "count": 5,
                    "order": 30
                }
            ]
        },
        "Adjustment indicator": {
            "buckets": [
                {
                    "val": "0|Calendar and seasonally adjusted data#Y#",
                    "count": 5
                },
                {
                    "val": "0|Neither seasonally adjusted nor calendar adjusted data#N#",
                    "count": 5
                }
            ]
        },
        "Reporting institutional sector": {
            "buckets": [
                {
                    "val": "0|General government#S13#",
                    "count": 5
                },
                {
                    "val": "0|General government, households and non profit institutions serving households#S1L#",
                    "count": 5
                },
                {
                    "val": "0|Households and non profit institutions serving households (NPISH)#S1M#",
                    "count": 5
                },
                {
                    "val": "0|Households#S14#",
                    "count": 5
                },
                {
                    "val": "0|Non profit institutions serving households#S15#",
                    "count": 5
                },
                {
                    "val": "0|Not applicable#_Z#",
                    "count": 5,
                    "order": 1000
                },
                {
                    "val": "0|Total economy#S1#",
                    "count": 5,
                    "order": 10
                }
            ]
        }
    },
    "highlighting": {}
}